<?xml version="1.0" encoding="UTF-8"?>
<svg width="290px" height="220px" viewBox="0 0 290 220" version="1.1" xmlns="http://www.w3.org/2000/svg" xmlns:xlink="http://www.w3.org/1999/xlink">
    <title>information_flow_flatline</title>
    <defs>
        <rect id="path-1" x="0" y="0" width="289.291339" height="220"></rect>
    </defs>
    <g id="Design" stroke="none" stroke-width="1" fill="none" fill-rule="evenodd">
        <g id="Главная-XL" transform="translate(-1310.000000, -5381.000000)">
            <g id="Group-35" transform="translate(0.000000, 5158.000000)">
                <g id="information_flow_flatline" transform="translate(1310.000000, 223.000000)">
                    <mask id="mask-2" fill="white">
                        <use xlink:href="#path-1"></use>
                    </mask>
                    <g id="Mask"></g>
                    <g mask="url(#mask-2)" fill-rule="nonzero">
                        <g transform="translate(160.843694, 178.008483) scale(-1, 1) rotate(12.000000) translate(-160.843694, -178.008483) translate(28.843694, -17.991517)">
                            <path d="M223.464567,61.9511811 C223.464567,61.9511811 228.089764,45.3732283 228.505512,43.0346457 C228.92126,40.696063 227.656693,31.3590551 230.237795,29.9385827 C232.818898,28.5181102 234.429921,36.9716535 234.429921,43.0346457 C234.429921,43.0346457 244.927559,20.1338583 247.872441,23.4944882 C250.817323,26.8551181 251.233071,33.992126 249.968504,37.7685039 C248.703937,41.5448819 232.125984,73.8866142 232.125984,73.8866142 L223.464567,61.9511811 Z" id="Path" fill="#FFFFFF"></path>
                            <path d="M232.125984,74.7529388 C231.852037,74.7584944 231.592848,74.6289003 231.433071,74.4062992 L222.615748,62.4708661 C222.462301,62.2550164 222.411615,61.9825777 222.477165,61.7259843 C222.477165,61.5527559 227.085039,45.1653543 227.500787,42.896063 C227.581139,41.742605 227.581139,40.5849541 227.500787,39.4314961 C227.500787,34.2346457 227.500787,30.2850394 229.544882,29.1417323 C230.146436,28.7771089 230.900808,28.7771089 231.502362,29.1417323 C233.511811,30.319685 234.499213,35.4125984 234.862992,39.5354331 C237.72126,33.6456693 243.40315,22.784252 246.625197,22.2125984 C247.246357,22.1055948 247.876617,22.3444304 248.270866,22.8362205 C251.544882,26.5779528 251.735433,34.1653543 250.540157,37.9590551 C249.344882,41.7527559 233.511811,72.8818898 232.853543,74.1984252 C232.720461,74.4727605 232.447901,74.6522512 232.143307,74.6661417 L232.125984,74.7529388 Z M224.261417,61.7779528 L231.987402,72.1716535 C235.018898,66.1952756 247.855118,40.6787402 248.946457,37.4220472 C250.193701,33.6629921 249.622047,27.0283465 247.006299,23.9968504 C245.499213,23.7023622 239.886614,32.6582677 235.018898,43.3291339 C234.85446,43.7032557 234.446779,43.9070966 234.048819,43.8141732 C233.645486,43.7318432 233.355821,43.3770043 233.355906,42.9653543 C233.355906,37.5259843 232.03937,31.4110236 230.688189,30.6141732 C230.615725,30.5621307 230.518133,30.5621307 230.445669,30.6141732 C229.129134,31.3590551 229.233071,36.5559055 229.285039,39.2755906 C229.384905,40.5208356 229.384905,41.7720778 229.285039,43.0173228 C228.886614,45.3732283 225.058268,59.1622047 224.330709,61.7779528 L224.261417,61.7779528 Z" id="Shape" fill="#231F20"></path>
                            <path d="M119.129134,80.2267717 C103.313386,75.7228346 75.4582677,84.7133858 58.4992126,100.407874 C45.0220472,112.932283 70.6251969,172.332283 83.4094488,202.612598 L160.530709,179.590551 C160.530709,179.590551 134.927559,84.7480315 119.129134,80.2267717 Z" id="Path" fill="#F29130"></path>
                            <path d="M160.565354,179.573228 C160.565354,179.573228 239.055118,203.409449 240.579528,220.437795 C242.103937,237.466142 219.255118,298.061417 219.255118,298.061417 L192.716535,293.488189 C192.716535,293.488189 215.47874,229.965354 204.703937,225.166929 C193.929134,220.368504 150.258268,212.070866 150.258268,212.070866 C150.258268,212.070866 154.762205,248.223622 162.713386,272.614173 C170.664567,297.004724 167.650394,340.554331 167.650394,340.554331 L139.933858,345.110236 C139.933858,345.110236 138.894488,289.088189 127.218898,263.502362 C115.543307,237.916535 83.4440945,202.543307 83.4440945,202.543307 L160.565354,179.573228 Z" id="Path" fill="#231F20"></path>
                            <path d="M139.933858,346.028346 C139.733005,346.028407 139.537893,345.961337 139.379528,345.837795 C139.179901,345.677991 139.064905,345.435223 139.067717,345.179528 C139.067717,344.625197 137.907087,289.03622 126.422047,263.91811 C114.937008,238.8 83.1149606,203.530709 82.8031496,203.166929 C82.5944772,202.951374 82.5212575,202.638527 82.6125984,202.352756 C82.6892553,202.071228 82.9051368,201.848804 83.184252,201.76378 L160.322835,178.741732 C160.480401,178.690152 160.650308,178.690152 160.807874,178.741732 C164.047244,179.711811 239.8,202.993701 241.445669,220.316535 C243.056693,237.39685 221.004724,295.861417 220.051969,298.269291 C219.907389,298.656303 219.505164,298.883012 219.099213,298.806299 L192.56063,294.198425 C192.306826,294.156738 192.084677,294.004408 191.954331,293.782677 C191.849835,293.551414 191.849835,293.286382 191.954331,293.055118 C208.393701,247.114961 208.393701,227.661417 204.409449,225.929134 C194.829921,221.667717 158.348031,214.548031 151.332283,213.214173 C152.181102,219.640945 156.529134,250.83937 163.579528,272.423622 C171.496063,296.675591 168.585827,340.259843 168.568504,340.692913 C168.535201,341.092984 168.236344,341.420303 167.840945,341.489764 L140.124409,346.045669 L139.933858,346.028346 Z M84.9858268,203.028346 C90.3212598,209.03937 117.500787,240.220472 127.998425,263.190551 C138.773228,286.766929 140.55748,336.466142 140.765354,344.15748 L166.749606,339.87874 C167.096063,334.231496 169.088189,295.237795 161.812598,272.943307 C153.930709,248.691339 149.374803,212.590551 149.322835,212.313386 C149.289129,212.034856 149.392423,211.757254 149.6,211.568504 C149.799004,211.380939 150.077512,211.303216 150.344882,211.36063 C152.077165,211.689764 194.240945,219.623622 204.981102,224.422047 C209.970079,226.63937 209.485039,238.748031 203.508661,261.406299 C199.818898,275.420472 195.089764,289.122835 193.807874,292.864567 L218.614173,297.177953 C221.108661,290.508661 241.133858,236.322835 239.644094,220.593701 C239.211024,215.968504 231.900787,207.688189 199.576378,194.488189 C181.231496,187.004724 162.834646,181.270866 160.496063,180.629921 L84.9858268,203.028346 Z" id="Shape" fill="#231F20"></path>
                            <path d="M57.0094488,42.4110236 C58.0119549,42.2213729 59.0492329,42.3932297 59.9370079,42.896063 C58.0314961,38.703937 61.911811,35.4645669 64.423622,32.7968504 C67.2271731,29.7182968 71.2454247,28.0324057 75.4062992,28.1889764 C80.3131449,28.6208437 85.0318542,30.2831163 89.1259843,33.0220472 C92.5905512,35.0141732 96.2976378,37.3527559 100.091339,36.3133858 C101.209694,35.855222 102.370032,35.5071206 103.555906,35.2740157 C104.751181,35.1700787 106.171654,35.8976378 106.188976,37.1102362 C106.146025,37.7592077 105.876218,38.3724058 105.426772,38.8425197 C104.220898,40.3448472 102.66977,41.5334509 100.905512,42.3070866 C101.771654,43.7102362 103.746457,43.7448819 105.392126,43.623622 L110.588976,43.2425197 C111.559055,43.2425197 112.788976,43.2425197 113.152756,44.1433071 C113.291103,44.658989 113.235636,45.2074944 112.99685,45.6850394 C111.680745,49.1984494 109.316159,52.2222164 106.223622,54.3464567 C108.763826,54.9138178 111.42307,54.5576143 113.724409,53.3417323 C114.296063,60.7905512 108.787402,67.6503937 102.083465,71.0110236 C95.3411284,74.0818974 87.9710245,75.5238743 80.5685039,75.2204724 C75.0598425,75.0818898 68.0614173,76.415748 63.2456693,72.7086614 C57.3136415,68.0446906 53.2409926,61.4166541 51.7606299,54.0173228 C50.9972421,51.1888749 51.261164,48.1813928 52.5055118,45.5291339 C53.4646744,43.8682377 55.1172248,42.7241644 57.0094488,42.4110236 L57.0094488,42.4110236 Z" id="Path" fill="#FFFFFF"></path>
                            <path d="M73.5181102,76.207874 C69.7244094,76.207874 65.8440945,75.792126 62.7779528,73.4015748 C56.6797866,68.5999264 52.4914156,61.7830763 50.9637795,54.1732283 C50.1361984,51.1447219 50.437875,47.9186287 51.8125984,45.096063 C52.9095486,43.2557902 54.7585576,41.9893457 56.8708661,41.6314961 L56.8708661,41.6314961 C57.4453002,41.5483411 58.0287156,41.5483411 58.6031496,41.6314961 C58.0661417,38.1669291 60.8377953,35.3259843 62.9165354,33.1779528 L63.7653543,32.311811 C66.7301253,29.0493103 70.9836933,27.2616707 75.3889764,27.4267717 C80.4386829,27.8806677 85.2962545,29.583199 89.5244094,32.3811024 L89.784252,32.519685 C92.919685,34.3905512 96.488189,36.4866142 99.8141732,35.5858268 C100.229921,35.4645669 100.611024,35.3259843 101.009449,35.1700787 C101.773926,34.8294785 102.585892,34.6075022 103.417323,34.511811 C104.405554,34.4307245 105.385081,34.7489148 106.137008,35.3952756 C106.644006,35.8330465 106.950549,36.4586449 106.985827,37.1275591 C106.957124,37.9854458 106.618665,38.8039028 106.033071,39.4314961 C105.010328,40.6616751 103.771663,41.6948747 102.377953,42.480315 C103.304595,42.7836085 104.289194,42.8666469 105.253543,42.7228346 L110.450394,42.3417323 C112.182677,42.2031496 113.429921,42.688189 113.914961,43.7968504 C114.136068,44.5068631 114.080371,45.2742385 113.759055,45.9448819 C112.64594,48.963606 110.786583,51.6513304 108.354331,53.7574803 C110.065378,53.7871454 111.756647,53.3881489 113.274016,52.5968504 C113.530771,52.4624717 113.837718,52.465402 114.09186,52.6046582 C114.346003,52.7439143 114.513663,53.001043 114.538583,53.2897638 C115.179528,61.5700787 108.925984,68.5511811 102.412598,71.807874 C95.5495107,74.9520527 88.042393,76.4356728 80.4992126,76.1385827 C79.2866142,76.1385827 78.0047244,76.1385827 76.688189,76.1385827 C75.3716535,76.1385827 74.6094488,76.207874 73.5181102,76.207874 Z M57.1480315,43.2944882 C55.5393241,43.5833718 54.139177,44.5653754 53.319685,45.9795276 C52.1592844,48.4482462 51.9256377,51.2520065 52.6614173,53.8787402 C54.1042803,61.0775336 58.0657078,67.5263691 63.8346457,72.0677165 C67.2992126,74.7527559 72.0629921,74.5968504 76.6708661,74.4409449 C78.0393701,74.4409449 79.3559055,74.4409449 80.6031496,74.4409449 C87.8611093,74.7518277 95.0885014,73.3265408 101.685039,70.2834646 C107.314961,67.4598425 112.771654,61.6220472 112.875591,54.6929134 C110.670051,55.5542759 108.258374,55.7411808 105.946457,55.2299213 C105.61249,55.1439915 105.356891,54.8749391 105.288189,54.5370079 C105.238574,54.1981299 105.37812,53.8592304 105.651969,53.6535433 C108.607068,51.6204551 110.868158,48.7306122 112.130709,45.3732283 C112.259231,45.0852243 112.312861,44.7694038 112.286614,44.4551181 C112.165354,44.1606299 111.524409,44.0220472 110.554331,44.0913386 L105.35748,44.4724409 C103.486614,44.6110236 101.182677,44.4724409 100.16063,42.7401575 C100.036901,42.5248661 100.005654,42.2686383 100.074016,42.0299213 C100.157109,41.7930986 100.331882,41.5995998 100.559055,41.4929134 C102.19196,40.7984305 103.630896,39.716256 104.751181,38.3401575 C105.064301,38.0337614 105.26559,37.6311843 105.322835,37.1968504 C105.315351,36.9805859 105.214191,36.7782655 105.045669,36.6425197 C104.641651,36.3281902 104.135859,36.1739853 103.625197,36.2094488 C102.963562,36.3037659 102.317124,36.4843028 101.702362,36.7464567 C101.260317,36.9255088 100.809323,37.081622 100.351181,37.2141732 C96.2976378,38.3228346 92.4,36.0188976 88.9700787,33.9748031 L88.7102362,33.8362205 C84.7348817,31.186788 80.163034,29.5675919 75.4062992,29.1244094 C71.5004646,28.9795317 67.7294204,30.564004 65.0992126,33.4551181 L64.2330709,34.3559055 C61.807874,36.8330709 59.3133858,39.3968504 60.7685039,42.6015748 C60.9207067,42.9465287 60.8372173,43.3500605 60.5606299,43.6062992 C60.287549,43.8637026 59.8758955,43.9062875 59.5559055,43.7102362 C58.8304146,43.3192879 57.9940955,43.1849885 57.1826772,43.3291339 L57.1480315,43.2944882 Z" id="Shape" fill="#231F20"></path>
                            <path d="M97.007874,82.1496063 L103.018898,95.8519685 C103.018898,95.8519685 100.472441,105.933858 90.4598425,105.63937 C80.4472441,105.344882 77.2944882,98.415748 77.2771654,98.3984252 L73.1023622,83.1716535 L70.5212598,73.8173228 C70.1187159,72.9021087 69.850334,71.9336 69.7244094,70.9417323 C69.9669291,68.6724409 72.496063,67.0440945 72.911811,64.6708661 C73.7359332,59.9227061 72.7133567,55.0391282 70.0535433,51.0204724 C74.6614173,53.6188976 79.8582677,56.2173228 85.0031496,54.9874016 C83.7512665,54.0611806 82.5910995,53.0170304 81.5385827,51.8692913 L92.3307087,53.8440945 C93.7227744,54.0646631 95.1307863,54.1689603 96.5401575,54.1559055 C98.1338583,54.1559055 97.3543307,53.3244094 98.792126,54.9874016 C102.395276,59.1448819 104.075591,66.8362205 104.370079,72.1716535 C104.733858,79.8283465 97.007874,82.1496063 97.007874,82.1496063 Z" id="Path" fill="#FFFFFF"></path>
                            <path d="M90.8062992,106.540157 L90.3559055,106.540157 C79.6330709,106.228346 76.3937008,98.7448819 76.376378,98.6755906 L69.6204724,74.0771654 C69.546374,73.8246808 69.4596507,73.5760742 69.3606299,73.3322835 C68.9907322,72.5646232 68.7955031,71.7245466 68.7889764,70.8724409 C69.0429033,69.5514201 69.6403825,68.320613 70.5212598,67.303937 C71.2123013,66.5077867 71.7155214,65.5664691 71.9937008,64.5496063 C72.7879459,60.0216046 71.8211737,55.3612665 69.2913386,51.5228346 C69.0387516,51.2158866 69.0387516,50.7730898 69.2913386,50.4661417 C69.561411,50.171507 69.9980219,50.0999315 70.3480315,50.2929134 C74.1417323,52.4582677 78.4724409,54.6409449 82.7858268,54.4330709 C82.0797755,53.8309364 81.4142838,53.1828054 80.7937008,52.4929134 C80.5306615,52.2239923 80.4809345,51.811969 80.6724409,51.488189 C80.850728,51.1676746 81.2115593,50.994198 81.5732283,51.0551181 L92.3826772,53.0299213 C93.6898034,53.2284216 95.0101733,53.3268702 96.3322835,53.3244094 C96.6023164,53.3490237 96.8744492,53.3135281 97.1291339,53.2204724 C98.0125984,52.9086614 98.3417323,53.2204724 99.2425197,54.3291339 C103.140157,58.8330709 104.837795,66.7149606 105.132283,72.1543307 C105.47874,78.719685 100.195276,81.7165354 98.0125984,82.6519685 L103.677165,95.5401575 C103.728808,95.7272097 103.728808,95.9247588 103.677165,96.111811 C103.76378,96.215748 101.026772,106.540157 90.8062992,106.540157 Z M78.0393701,98.1905512 C78.0393701,98.1905512 81.088189,104.548031 90.407874,104.807874 L90.8062992,104.807874 C98.896063,104.807874 101.56378,97.5149606 102.031496,95.9559055 L96.1417323,82.5307087 C96.037925,82.3053425 96.037925,82.0458386 96.1417323,81.8204724 C96.2488933,81.5974244 96.443093,81.4282828 96.6787402,81.3527559 C96.9732283,81.2661417 103.833071,79.0834646 103.469291,72.2409449 C103.174803,66.680315 101.390551,59.3700787 98.0992126,55.5937008 C97.8220472,55.2645669 97.6661417,55.0566929 97.5448819,54.9354331 C97.1982572,55.0150287 96.8438337,55.0557002 96.488189,55.0566929 C95.0322488,55.0670677 93.5779457,54.956981 92.1401575,54.7275591 L84.1370079,53.2724409 L85.4535433,54.3291339 C85.7288569,54.5243042 85.8588995,54.8665216 85.7826772,55.1952756 C85.7146961,55.523935 85.4663613,55.7856932 85.1417323,55.8708661 C80.6377953,56.9102362 76.2031496,55.2992126 72.2015748,53.2377953 C73.8649246,56.8717488 74.3844738,60.9254404 73.6913386,64.8614173 C73.3828597,66.1322371 72.7906236,67.3167093 71.9590551,68.3259843 C71.2651461,69.103433 70.7820616,70.045746 70.5559055,71.0629921 C70.6102881,71.661166 70.76244,72.2463656 71.0062992,72.7952756 C71.1281554,73.0949311 71.2322723,73.4014977 71.3181102,73.7133858 L78.0740157,98.2771654 L78.0393701,98.1905512 Z" id="Shape" fill="#231F20"></path>
                            <path d="M100.091339,89.3905512 C96.8968344,90.7417528 93.2414827,90.430659 90.3212598,88.5590551 C85.2629921,85.4062992 84.8818898,81.9417323 84.8818898,81.9417323 C88.7410881,83.5845903 93.0860738,83.6714901 97.007874,82.184252 L100.091339,89.3905512 Z" id="Path" fill="#231F20"></path>
                            <path d="M95.9858268,91.088189 C93.8250097,91.0984089 91.7052722,90.4979167 89.8708661,89.3559055 C84.5181102,86.0125984 84.0330709,82.2535433 84.015748,82.080315 C83.9863472,81.7707961 84.1250991,81.469264 84.3793026,81.2902474 C84.6335061,81.1112309 84.964158,81.0821969 85.2456693,81.2141732 C88.8627135,82.7239717 92.9180229,82.8044587 96.592126,81.4393701 C97.0274799,81.2578704 97.5280261,81.4580889 97.7181102,81.8897638 L100.888189,89.096063 C101.074284,89.5221421 100.890776,90.0191421 100.472441,90.2220472 C99.0531237,90.818686 97.5252394,91.1136444 95.9858268,91.088189 L95.9858268,91.088189 Z M86.319685,83.3795276 C87.3905917,85.2318245 88.9325346,86.7677909 90.7889764,87.8314961 C93.2128345,89.3871648 96.2041581,89.7809271 98.9480315,88.9055118 L96.4708661,83.2929134 C93.1777384,84.3722133 89.63075,84.4024777 86.319685,83.3795276 Z" id="Shape" fill="#231F20"></path>
                            <path d="M89.7322835,61.1889764 C89.7322835,61.1889764 96.5228346,67.3559055 95.6740157,68.9496063 C94.8251969,70.5433071 91.3086614,70.4913386 91.3086614,70.4913386" id="Path" fill="#FFFFFF"></path>
                            <path d="M91.3433071,71.3574803 L91.3433071,71.3574803 C91.1151525,71.3574803 90.8965848,71.2657249 90.7368929,71.102774 C90.5772011,70.9398231 90.489832,70.7194456 90.4944882,70.4913386 C90.4944882,70.0129817 90.8822731,69.6251969 91.3606299,69.6251969 L91.3606299,69.6251969 C92.5732283,69.6251969 94.5133858,69.2787402 94.9291339,68.5338583 C94.9291339,67.8062992 92.2614173,64.6535433 89.1606299,61.8299213 C88.8395775,61.5026508 88.8291572,60.981887 89.1368607,60.6420353 C89.4445643,60.3021836 89.9637994,60.2609728 90.3212598,60.5480315 C93.6645669,63.5795276 97.423622,67.4771654 96.4535433,69.3480315 C95.4834646,71.2188976 91.9322835,71.3574803 91.3433071,71.3574803 Z" id="Path" fill="#231F20"></path>
                            <ellipse id="Oval" fill="#231F20" transform="translate(84.878351, 61.969167) rotate(-9.080000) translate(-84.878351, -61.969167) " cx="84.8783507" cy="61.9691668" rx="1.26456693" ry="1.78425197"></ellipse>
                            <ellipse id="Oval" fill="#231F20" transform="translate(97.828527, 59.358406) rotate(-26.210000) translate(-97.828527, -59.358406) " cx="97.8285272" cy="59.3584061" rx="1.26456693" ry="1.78425197"></ellipse>
                            <path d="M91.3606299,77.2125984 C89.4011493,77.1698065 87.4812414,76.6526796 85.7653543,75.7055118 C85.3406738,75.4893439 85.1703805,74.9707235 85.384252,74.5448819 C85.4845192,74.337484 85.6647762,74.1797465 85.8836428,74.1078799 C86.1025094,74.0360132 86.3411861,74.0561904 86.5448819,74.1637795 C94.3748031,78.2 98.2031496,71.6519685 98.3590551,71.3748031 C98.6063673,70.9870312 99.1136294,70.86017 99.5143651,71.0858717 C99.9151009,71.3115735 100.069555,71.8111257 99.8661417,72.223622 C98.0370257,75.1975684 94.8490352,77.0675099 91.3606299,77.2125984 Z" id="Path" fill="#231F20"></path>
                            <path d="M73.6047244,69.0535433 C72.2423032,68.1232517 70.5653626,67.7741489 68.9448819,68.0834646 C67.3137627,68.4297081 66.034442,69.6954911 65.6708661,71.3228346 C65.5233426,73.1945731 66.3640935,75.0074422 67.888189,76.103937 C70.0757204,77.9128557 72.9263526,78.7120395 75.7354331,78.303937" id="Path" fill="#FFFFFF"></path>
                            <path d="M74.2629921,79.2740157 C71.7345255,79.2676175 69.2862167,78.3862263 67.3338583,76.7795276 C65.5607338,75.4875567 64.6101825,73.3488164 64.8393701,71.1669291 C65.279572,69.206116 66.8108404,67.6748476 68.7716535,67.2346457 C70.6189736,66.8720006 72.534568,67.265103 74.0897638,68.3259843 C74.4931766,68.5912724 74.6088941,69.1312873 74.3496063,69.5385827 C74.0787834,69.9359835 73.5398447,70.0437713 73.1370079,69.7811024 C71.9797815,68.9677384 70.5410129,68.6612181 69.1527559,68.9322835 C67.8582752,69.1855272 66.833681,70.1761945 66.5370079,71.4614173 C66.4632878,73.0291428 67.1866398,74.5279804 68.4598425,75.4456693 C70.4514402,77.0995194 73.0544316,77.8243233 75.6141732,77.4377953 C76.089321,77.3743433 76.5309299,77.6941291 76.6188976,78.1653543 C76.6815676,78.6366385 76.3600347,79.0730046 75.8913386,79.1527559 C75.3527278,79.237136 74.8081601,79.2776889 74.2629921,79.2740157 Z" id="Path" fill="#231F20"></path>
                            <path d="M96.1244094,104.496063 L93.3354331,110.351181 L97.215748,111.477165 C97.215748,111.477165 118.176378,169.31811 163.04252,158.751181 L174.700787,143.559055 L158.919685,137.392126 C158.919685,137.392126 151.193701,143.905512 136.4,140.146457 C118.973228,135.711811 100.022047,110.95748 100.022047,110.95748 L100.83622,106.055118 L96.1244094,104.496063 Z" id="Path" fill="#231F20"></path>
                            <path d="M152.440945,160.899213 C116.582677,160.899213 98.480315,116.968504 96.6267717,112.187402 L93.1622047,111.182677 C92.9144607,111.111534 92.7112743,110.933746 92.607874,110.697638 C92.5033781,110.466374 92.5033781,110.201342 92.607874,109.970079 L95.3968504,104.132283 C95.5716526,103.732883 96.0252636,103.536318 96.4362205,103.68189 L101.234646,105.240945 C101.638059,105.379443 101.880594,105.791019 101.806299,106.211024 L101.061417,110.714961 C103.261417,113.503937 120.826772,135.261417 136.746457,139.314961 C150.829921,142.900787 158.382677,136.785827 158.451969,136.733858 C158.692411,136.531554 159.022215,136.472189 159.31811,136.577953 L175.116535,142.744882 C175.363217,142.847722 175.548608,143.058684 175.618898,143.316535 C175.698099,143.578098 175.646518,143.861796 175.480315,144.07874 L163.804724,159.288189 C163.680726,159.441518 163.510655,159.550849 163.319685,159.6 C159.755148,160.448194 156.104977,160.884122 152.440945,160.899213 L152.440945,160.899213 Z M94.5480315,109.866142 L97.4582677,110.732283 C97.725667,110.795379 97.9417019,110.991775 98.0299213,111.251969 C98.2377953,111.823622 119.16378,167.984252 162.574803,158.023622 L173.366929,143.974803 L159.092913,138.39685 C157.256693,139.730709 149.530709,144.407874 136.261417,141.029921 C118.748031,136.56063 100.195276,112.533858 99.415748,111.581102 C99.2658825,111.390131 99.2030369,111.145034 99.2425197,110.905512 L99.9354331,106.748031 L96.5748031,105.656693 L94.5480315,109.866142 Z" id="Shape" fill="#231F20"></path>
                            <path d="M84.8818898,70.1968712 C81.9430535,70.203856 79.2900205,68.4380087 78.162138,65.7242127 C77.0342555,63.0104167 77.6541403,59.8843099 79.7322172,57.806233 C81.8102942,55.728156 84.936401,55.1082712 87.650197,56.2361537 C90.3639929,57.3640362 92.1298402,60.0170693 92.1228554,62.9559055 C92.1133111,66.9510175 88.8770018,70.1873268 84.8818898,70.1968712 Z M84.8818898,57.4298939 C82.6452747,57.4229099 80.6249899,58.7648183 79.7642118,60.8291722 C78.9034336,62.893526 79.371928,65.2731861 80.9509767,66.8572003 C82.5300254,68.4412146 84.9082027,68.917178 86.975249,68.0628856 C89.0422953,67.2085932 90.3905512,65.1925315 90.3905512,62.9559055 C90.3905512,59.9107409 87.9270394,57.4394672 84.8818898,57.4298939 L84.8818898,57.4298939 Z" id="Shape" fill="#231F20"></path>
                            <path d="M96.4362205,66.1259843 C92.4275899,66.1259843 89.1779528,62.8763471 89.1779528,58.8677165 C89.1779528,54.859086 92.4275899,51.6094488 96.4362205,51.6094488 C100.444851,51.6094488 103.694488,54.859086 103.694488,58.8677165 C103.694488,60.7927288 102.92978,62.6388976 101.568591,64.0000869 C100.207402,65.3612761 98.3612328,66.1259843 96.4362205,66.1259843 L96.4362205,66.1259843 Z M96.4362205,53.3590551 C94.1995944,53.3590551 92.1835328,54.707311 91.3292404,56.7743573 C90.4749479,58.8414036 90.9509114,61.2195809 92.5349257,62.7986296 C94.1189399,64.3776783 96.4985999,64.8461727 98.5629538,63.9853945 C100.627308,63.1246164 101.969216,61.1043316 101.962232,58.8677165 C101.952659,55.8225669 99.4813851,53.3590551 96.4362205,53.3590551 L96.4362205,53.3590551 Z" id="Shape" fill="#231F20"></path>
                            <path d="M71.5779528,69.0188976 C71.0995959,69.0954347 70.6497654,68.7696955 70.5732283,68.2913386 C70.4966912,67.8129817 70.8224305,67.3631513 71.3007874,67.2866142 L78.2299213,64.9653543 C78.7082781,64.8170637 79.2162763,65.0846353 79.3645669,65.5629921 C79.5128576,66.041349 79.245286,66.5493472 78.7669291,66.6976378 L71.8377953,69.0015748 C71.7527652,69.0218783 71.6649255,69.0277343 71.5779528,69.0188976 Z" id="Path" fill="#231F20"></path>
                            <path d="M252.913386,2.8976378 C252.913386,2.8976378 251.96063,2.22204724 250.540157,1.33858268 C250.540157,1.33858268 248.946457,4.49133858 248.911811,4.37007874 C248.877165,4.2488189 252.913386,2.8976378 252.913386,2.8976378 Z" id="Path" fill="#231F20"></path>
                            <path d="M249.015748,5.25354331 L248.790551,5.25354331 C248.431257,5.21995281 248.132477,4.96286322 248.045669,4.61259843 C247.941732,4.21417323 247.889764,3.98897638 248.288189,3.71181102 C248.686614,3.43464567 249.188976,1.97952756 249.743307,0.97480315 C249.8472,0.752878688 250.043692,0.58807932 250.280315,0.524409449 C250.509505,0.453210414 250.758715,0.491550452 250.955906,0.628346457 C252.411024,1.51181102 253.381102,2.20472441 253.381102,2.20472441 C253.657942,2.38597529 253.804218,2.71158167 253.755861,3.03892504 C253.707503,3.36626841 253.473328,3.6356717 253.155906,3.72913386 C251.648819,4.2488189 249.968504,4.83779528 249.448819,5.06299213 C249.343424,5.19235026 249.182325,5.26323377 249.015748,5.25354331 Z" id="Shape" fill="#231F20"></path>
                            <polygon id="Path" fill="#231F20" points="238.119685 57.7417323 235.815748 56.2519685 236.785827 53.8094488"></polygon>
                            <path d="M238.137008,58.607874 C237.964878,58.6130212 237.795397,58.5645979 237.651969,58.4692913 L235.348031,56.9795276 C235.000916,56.7586292 234.862206,56.3205948 235.018898,55.9401575 L235.988976,53.4976378 C236.135951,53.1678886 236.45956,52.952149 236.820472,52.9433071 C237.181551,52.9581771 237.497167,53.1914589 237.617323,53.5322835 L238.951181,57.4645669 C239.072278,57.8176016 238.95361,58.208508 238.656693,58.4346457 C238.50737,58.5482353 238.32462,58.6091518 238.137008,58.607874 L238.137008,58.607874 Z" id="Path" fill="#231F20"></path>
                            <path d="M239.176378,57.776378 L260.985827,50.6393701 C261.910679,50.3354387 262.471634,49.3980529 262.302362,48.4393701 L253.398425,3.76377953 C253.326036,3.3363206 253.057774,2.96737084 252.67346,2.76671143 C252.289147,2.56605202 251.833073,2.55680887 251.440945,2.74173228 L229.822047,11.2992126 C228.956344,11.6812778 228.457918,12.5998056 228.609449,13.5338583 L237.270866,56.6850394 C237.335608,57.107643 237.58949,57.4776738 237.960486,57.6901532 C238.331481,57.9026325 238.77911,57.934376 239.176378,57.776378 Z" id="Path" fill="#231F20"></path>
                            <path d="M238.691339,58.729154 C238.289005,58.7308494 237.893786,58.6230625 237.548031,58.4173228 C236.97815,58.0774966 236.580933,57.5100431 236.456693,56.8582677 L227.795276,13.7070866 C227.550037,12.3648415 228.270262,11.032426 229.527559,10.5023622 L251.146457,1.84094488 C251.796421,1.57292393 252.531414,1.60460467 253.155906,1.92755906 C253.744642,2.26202919 254.156441,2.83854742 254.28189,3.50393701 L263.185827,48.1795276 C263.448345,49.5699843 262.641125,50.9400366 261.297638,51.384252 L239.470866,58.5212598 L239.470866,58.5212598 C239.225787,58.6372709 238.961641,58.70771 238.691339,58.729154 Z M252.047244,3.48661417 L251.752756,3.48661417 L230.133858,12.1480315 C229.659649,12.3707838 229.385777,12.8763942 229.458268,13.3952756 L238.119685,56.5464567 C238.140683,56.7148867 238.237689,56.8644135 238.382936,56.9522371 C238.528183,57.0400607 238.70566,57.0565003 238.864567,56.9968504 L260.691339,49.8598425 C261.189083,49.6773262 261.492087,49.1723208 261.418898,48.6472441 L252.514961,3.97165354 C252.497777,3.80467394 252.400996,3.6562772 252.255118,3.57322835 C252.192483,3.53043801 252.121732,3.50095839 252.047244,3.48661417 Z" id="Shape" fill="#231F20"></path>
                            <path d="M236.768504,56.2519685 L258.595276,49.1149606 C259.508303,48.7982974 260.058045,47.8674017 259.894488,46.9149606 L251.007874,2.23937008 C250.930546,1.81086827 250.658668,1.44254686 250.271965,1.24241115 C249.885262,1.04227544 249.427559,1.03300669 249.033071,1.21732283 L227.414173,9.77480315 C226.546363,10.1530427 226.051803,11.0776557 226.218898,12.0094488 L234.880315,55.1606299 C234.946344,55.5787784 235.197627,55.9447659 235.564141,56.1566043 C235.930655,56.3684426 236.373219,56.4034858 236.768504,56.2519685 Z" id="Path" fill="#FFFFFF"></path>
                            <path d="M236.283465,57.2047343 C235.886656,57.2059214 235.497148,57.0980577 235.15748,56.8929134 C234.582545,56.5550662 234.179186,55.9878426 234.048819,55.3338583 L225.387402,12.1826772 C225.142163,10.840432 225.862388,9.50801655 227.119685,8.97795276 L248.738583,0.403149606 C249.369958,0.108585285 250.099333,0.108585285 250.730709,0.403149606 C251.327695,0.731962867 251.746886,1.30993934 251.874016,1.97952756 L260.76063,46.6551181 C261.023148,48.0455748 260.215928,49.4156272 258.872441,49.8598425 L237.045669,56.9968504 L237.045669,56.9968504 C236.806498,57.1122968 236.548131,57.1827607 236.283465,57.2047343 L236.283465,57.2047343 Z M249.63937,1.96220472 C249.547723,1.94564824 249.453851,1.94564824 249.362205,1.96220472 L227.743307,10.5370079 C227.2607,10.7507671 226.983105,11.2632494 227.067717,11.784252 L235.729134,54.9354331 C235.757468,55.107413 235.858446,55.2588804 236.006299,55.3511811 C236.156301,55.4118597 236.324014,55.4118597 236.474016,55.3511811 L258.300787,48.2141732 C258.80307,48.0371808 259.108545,47.5280563 259.028346,47.0015748 L250.159055,2.46456693 C250.134431,2.30031784 250.039592,2.15489782 249.899213,2.06614173 C249.821312,2.01277879 249.732583,1.97728719 249.63937,1.96220472 L249.63937,1.96220472 Z" id="Shape" fill="#231F20"></path>
                            <path d="M245.447244,50.1889764 L249.691339,48.8031496 C250.251737,48.6083432 250.588888,48.0366529 250.488189,47.4519685 L250.141732,45.719685 C250.100915,45.458116 249.94495,45.2286368 249.716766,45.094411 C249.488582,44.9601852 249.212232,44.9353612 248.96378,45.0267717 L244.702362,46.4472441 C244.15837,46.6481047 243.837026,47.2104567 243.940157,47.7811024 L244.269291,49.5133858 C244.314587,49.7717894 244.472382,49.996697 244.699954,50.1272161 C244.927525,50.2577351 245.201333,50.2803641 245.447244,50.1889764 Z" id="Path" fill="#E6E7E8"></path>
                            <path d="M236.733858,9.25511811 C236.642946,9.25511811 236.56095,9.20045435 236.525984,9.11653543 C236.48909,9.00670969 236.541545,8.88681113 236.647244,8.83937008 L242.970079,6.34488189 C243.044345,6.31393763 243.129478,6.32496451 243.19341,6.37380882 C243.257342,6.42265314 243.290359,6.50189426 243.280024,6.58168284 C243.26969,6.66147142 243.217573,6.72968566 243.143307,6.76062992 L236.80315,9.23779528 L236.733858,9.25511811 Z" id="Path" fill="#E6E7E8"></path>
                            <path d="M235.001575,9.93070866 C234.886769,9.93070866 234.793701,9.83764029 234.793701,9.72283465 C234.793701,9.608029 234.886769,9.51496063 235.001575,9.51496063 L235.833071,9.18582677 C235.942897,9.14893209 236.062795,9.20138771 236.110236,9.30708661 C236.138905,9.35898764 236.141781,9.42127661 236.118015,9.47559816 C236.094249,9.52991971 236.046551,9.57008274 235.988976,9.58425197 L235.15748,9.91338583 L235.001575,9.93070866 Z" id="Path" fill="#E6E7E8"></path>
                            <polygon id="Path" fill="#E6E7E8" points="248.755906 5.30551181 229.250394 13.4125984 236.543307 47.8850394 255.56378 40.9559055"></polygon>
                            <path d="M29.4488189,198.212598 C29.2409449,199.251969 29.6566929,209.541732 29.4488189,211.429921 C29.2062992,213.699213 32.6708661,215.812598 33.8141732,217.423622 C36.0488189,220.593701 37.3826772,225.045669 38.7685039,228.648819 C38.9590551,229.151181 39.1322835,229.774803 38.7685039,230.138583 C38.5849743,230.29996 38.353923,230.397244 38.1102362,230.415748 C35.9102362,230.710236 34.1433071,228.683465 32.8267717,226.951181 L29.4488189,222.464567 C30.2976378,223.64252 28.3401575,232.009449 28.080315,233.776378 C27.8450365,236.806468 27.2638288,239.799688 26.3480315,242.697638 C24.615748,247.062992 13.4425197,246.491339 12.1779528,242.472441 C10.6362205,237.587402 8.15905512,227.661417 11.3811024,218.064567 C11.1732283,214.132283 8.8519685,191.820472 8.8519685,191.820472 L29.4488189,198.212598 Z" id="Path" fill="#FFFFFF"></path>
                            <path d="M19.4362205,246.525984 L18.8992126,246.525984 C15.9023622,246.404724 12.1259843,245.330709 11.2771654,242.662992 C8.36692913,233.377953 8.07244094,225.045669 10.4283465,217.891339 C10.1685039,213.595276 7.9511811,192.062992 7.91653543,191.907087 C7.90131427,191.615581 8.02304415,191.333681 8.24566929,191.144882 C8.47371033,190.974335 8.76701846,190.916949 9.04251969,190.988976 L29.6220472,197.502362 C30.0425761,197.642152 30.2944742,198.071861 30.2110236,198.507087 C30.1244094,198.95748 30.2110236,201.971654 30.2110236,204.483465 C30.2110236,207.653543 30.3149606,210.633071 30.2110236,211.655118 C30.1070866,212.677165 31.5448819,214.132283 32.7055118,215.240945 C33.3389968,215.759454 33.9192864,216.339743 34.4377953,216.973228 C36.2115658,219.79205 37.620208,222.824705 38.6299213,225.998425 C38.9301837,226.829921 39.2246719,227.626772 39.5133858,228.388976 C39.9503445,229.159483 39.8604437,230.12073 39.288189,230.79685 C38.9791716,231.097843 38.5748468,231.281627 38.1448819,231.316535 C35.4944882,231.697638 33.4850394,229.462992 32.0472441,227.488189 L30.3149606,225.218898 C30.1417323,226.743307 29.7779528,228.874016 29.1716535,231.905512 C29.015748,232.771654 28.8771654,233.447244 28.807874,233.828346 C28.807874,234.486614 28.6346457,235.144882 28.5480315,235.837795 C28.3403851,238.263973 27.8341994,240.655264 27.0409449,242.95748 C25.984252,245.607874 22.415748,246.525984 19.4362205,246.525984 Z M9.78740157,193.015748 C10.2897638,197.883465 11.9874016,214.582677 12.1779528,217.995276 C12.1944674,218.098557 12.1944674,218.203806 12.1779528,218.307087 C9.92598425,225.045669 10.2031496,233.308661 12.992126,242.177953 C13.4425197,243.598425 15.9716535,244.707087 19.0031496,244.828346 C21.7228346,244.914961 24.7889764,244.204724 25.5338583,242.351181 C26.2684317,240.180811 26.7395255,237.930029 26.9370079,235.647244 C26.9370079,234.954331 27.1102362,234.27874 27.2141732,233.60315 C27.2141732,233.222047 27.4047244,232.494488 27.5779528,231.593701 C28.0110236,229.480315 29.119685,223.850394 28.703937,222.932283 C28.4609066,222.540705 28.5670713,222.02739 28.9454927,221.764341 C29.3239142,221.501291 29.8420524,221.58064 30.1244094,221.944882 L30.1244094,221.944882 L33.4503937,226.51811 C34.6283465,228.094488 36.1874016,229.896063 37.919685,229.653543 L38.0929134,229.653543 C38.0929134,229.653543 38.0929134,229.462992 37.919685,229.099213 C37.607874,228.337008 37.3133858,227.522835 37.0188976,226.674016 C36.0669964,223.631195 34.7341126,220.720968 33.0519685,218.012598 C32.6035837,217.448901 32.1049494,216.927074 31.5622047,216.453543 C30.0377953,215.033071 28.3228346,213.404724 28.5307087,211.429921 C28.6346457,210.529134 28.5307087,207.307087 28.5307087,204.500787 C28.5307087,201.694488 28.5307087,199.892913 28.5307087,198.940157 L9.78740157,193.015748 Z" id="Shape" fill="#231F20"></path>
                            <path d="M70.6771654,91.3307087 C65.480315,95.696063 16.976378,116.171654 2.7023622,137.96378 C-4.55590551,149.067717 6.89448819,211.48189 6.89448819,211.48189 L32.7228346,206.458268 L33.0866142,151.440945 C36.0834646,147.699213 69.6377953,129.007874 69.6377953,129.007874 L70.6771654,91.3307087 Z" id="Path" fill="#F29130"></path>
                            <path d="M119.129134,80.2267717 C119.129134,80.2267717 183.223622,88.5417323 190.533858,86.0818898 C197.844094,83.6220472 226.461417,48.5259843 226.461417,48.5259843 L240.666142,63.6834646 C240.666142,63.6834646 225.335433,110.316535 204.617323,115.166929 C183.899213,120.017323 125.677165,115.166929 125.677165,115.166929 L119.129134,80.2267717 Z" id="Path" fill="#F29130"></path>
                            <path d="M33.0866142,152.272441 C32.7929456,152.26882 32.5202749,152.1195 32.3590551,151.874016 C32.2320823,151.680187 32.1898692,151.442874 32.2422114,151.217149 C32.2945536,150.991423 32.4369007,150.796907 32.6362205,150.67874 L75.2677165,123.724409 C75.4615457,123.597437 75.6988578,123.555223 75.9245836,123.607566 C76.1503095,123.659908 76.344825,123.802255 76.4629921,124.001575 C76.7205928,124.403523 76.6043748,124.938125 76.2031496,125.19685 L33.5543307,152.116535 C33.4168198,152.212715 33.2543307,152.266878 33.0866142,152.272441 L33.0866142,152.272441 Z" id="Path" fill="#231F20"></path>
                            <path d="M147.937008,138.812598 C147.561461,138.817314 147.225667,138.57946 147.105512,138.223622 C146.533858,136.491339 128.188976,89.4425197 128.050394,88.9748031 C127.910999,88.6814278 127.94746,88.334722 128.144835,88.0767625 C128.34221,87.818803 128.66732,87.6929541 128.986937,87.7507874 C129.306555,87.8086207 129.566951,88.0404142 129.661417,88.3511811 C130.423622,90.2913386 148.214173,135.937008 148.80315,137.669291 C148.880334,137.887467 148.866995,138.127458 148.76611,138.335738 C148.665225,138.544017 148.485184,138.703261 148.266142,138.777953 C148.159959,138.811913 148.047934,138.823705 147.937008,138.812598 L147.937008,138.812598 Z" id="Path" fill="#231F20"></path>
                        </g>
                    </g>
                </g>
            </g>
        </g>
    </g>
</svg>