<svg xmlns="http://www.w3.org/2000/svg" width="15" height="8" viewBox="0 0 15 8">
    <g>
        <g>
            <path fill="#9e9e9f"
                  d="M7.552 8c.138 0 .256-.05.355-.147l6.945-6.91A.481.481 0 0 0 15 .589a.481.481 0 0 0-.148-.353.486.486 0 0 0-.355-.148.486.486 0 0 0-.356.148l-6.59 6.556L.86.132A.514.514 0 0 0 .503 0a.514.514 0 0 0-.355.133.51.51 0 0 0 0 .722l7.048 6.998A.486.486 0 0 0 7.552 8z"/>
        </g>
    </g>
</svg>