<?xml version="1.0" encoding="UTF-8"?>
<svg width="300px" height="190px" viewBox="0 0 300 190" version="1.1" xmlns="http://www.w3.org/2000/svg" xmlns:xlink="http://www.w3.org/1999/xlink">
    <title>Group 21</title>
    <g id="Design" stroke="none" stroke-width="1" fill="none" fill-rule="evenodd">
        <g id="Главная-XL" transform="translate(-1025.000000, -1694.000000)" fill-rule="nonzero">
            <g id="Услуги" transform="translate(285.000000, 1144.000000)">
                <g id="Group-7-Copy-3" transform="translate(570.000000, 440.000000)">
                    <g id="Group-21" transform="translate(170.000000, 110.000000)">
                        <g id="pipeline" transform="translate(174.500000, 95.000000) scale(-1, 1) translate(-174.500000, -95.000000) translate(49.000000, 0.000000)">
                            <path d="M182.99375,189.499554 L166.987946,189.499554 C166.753719,189.499554 166.563839,189.309674 166.563839,189.075446 L166.563839,40.4598214 C166.568506,35.2839449 170.760737,31.0879205 175.936607,31.0785714 L250.107143,31.0785714 C250.341371,31.0785714 250.53125,31.2684507 250.53125,31.5026786 C250.53125,31.7369065 250.341371,31.9267857 250.107143,31.9267857 L175.936607,31.9267857 C171.229193,31.9361328 167.416719,35.7523999 167.412054,40.4598214 L167.412054,188.651339 L182.569643,188.651339 L182.569643,53.5732143 C182.574316,49.9914647 185.476733,47.0890479 189.058482,47.084375 L250.107143,47.084375 C250.341371,47.084375 250.53125,47.2742542 250.53125,47.5084821 C250.53125,47.7427101 250.341371,47.9325893 250.107143,47.9325893 L189.058482,47.9325893 C185.943251,47.9325893 183.417857,50.4579831 183.417857,53.5732143 L183.417857,189.075446 C183.413345,189.307779 183.226083,189.495041 182.99375,189.499554 Z" id="Path" fill="#D1D3D4"></path>
                            <rect id="Rectangle" fill="#FFFFFF" x="68.2303571" y="159.023214" width="12.6808036" height="11.0776786"></rect>
                            <path d="M80.9026786,170.491071 L68.2303571,170.491071 C68.0148675,170.491071 67.840082,170.316383 67.840082,170.100893 L67.840082,159.023214 C67.8378365,158.919032 67.8781919,158.818422 67.9518785,158.744736 C68.025565,158.671049 68.126175,158.630694 68.2303571,158.632939 L80.9026786,158.632939 C81.0061604,158.632939 81.1054038,158.674144 81.1785765,158.747316 C81.2517492,158.820489 81.2928571,158.919732 81.2928571,159.023214 L81.2928571,170.100893 C81.2883588,170.314492 81.1162772,170.486573 80.9026786,170.491071 L80.9026786,170.491071 Z M68.6120536,169.710714 L80.4870536,169.710714 L80.4870536,159.404911 L68.6120536,159.404911 L68.6120536,169.710714 Z" id="Shape" fill="#231F20"></path>
                            <polyline id="Path" fill="#FFFFFF" points="234.005357 71.8946429 147.309375 71.8946429 147.309375 109.148214 234.005357 109.148214"></polyline>
                            <path d="M234.005357,109.530005 L147.309375,109.530005 C147.206681,109.532193 147.107402,109.492989 147.033975,109.421158 C146.960548,109.349327 146.919196,109.250933 146.919196,109.148214 L146.919196,71.8946429 C146.919196,71.7919238 146.960548,71.6935299 147.033975,71.621699 C147.107402,71.5498681 147.206681,71.5106638 147.309375,71.512852 L234.005357,71.512852 C234.216162,71.512852 234.387054,71.6838377 234.387054,71.8946429 C234.387054,72.106863 234.217527,72.280208 234.005357,72.2848214 L147.691071,72.2848214 L147.691071,108.758036 L234.005357,108.758036 C234.196587,108.786463 234.338164,108.950642 234.338164,109.143973 C234.338164,109.337305 234.196587,109.501483 234.005357,109.530005 L234.005357,109.530005 Z" id="Path" fill="#231F20"></path>
                            <path d="M38.1696429,0.610714286 L38.1696429,65.4651786 C38.1696429,69.0160736 41.0482121,71.8946429 44.5991071,71.8946429 L67.8910714,71.8946429 L67.8910714,109.148214 L22.3334821,109.148214 C10.5237111,109.148214 0.95,99.5745032 0.95,87.7647321 L0.95,0.610714286" id="Path" fill="#FFFFFF"></path>
                            <path d="M67.925,109.529911 L22.3334821,109.529911 C10.318719,109.515888 0.582325873,99.7794953 0.568303571,87.7647321 L0.568303571,0.610714286 C0.596731179,0.419484225 0.760909582,0.277907865 0.954241071,0.277907865 C1.14757256,0.277907865 1.31175096,0.419484225 1.34017857,0.610714286 L1.34017857,87.7647321 C1.34953322,99.3551365 10.7430778,108.748681 22.3334821,108.758036 L67.5348214,108.758036 L67.5348214,72.2848214 L44.6330357,72.2848214 C40.8950187,72.2616751 37.8704677,69.2371242 37.8473214,65.4991071 L37.8473214,0.610714286 C37.875749,0.419484225 38.0399274,0.277907865 38.2332589,0.277907865 C38.4265904,0.277907865 38.5907688,0.419484225 38.6191964,0.610714286 L38.6191964,65.4651786 C38.6238684,68.8033314 41.3288115,71.5082744 44.6669643,71.5129464 L67.9589286,71.5129464 C68.1697337,71.5129464 68.340628,71.6838377 68.340628,71.8946429 L68.340628,109.148214 C68.340628,109.255609 68.2962128,109.358214 68.2171129,109.430856 C68.1380131,109.503499 68.0319701,109.539458 67.925,109.529911 Z" id="Path" fill="#231F20"></path>
                            <path d="M144.332143,18.8727679 C144.332143,21.4174107 140.455804,23.4107143 135.671875,23.4107143 C130.887946,23.4107143 114.390179,21.3834821 114.390179,18.8727679 C114.390179,16.3620536 130.896429,14.3433036 135.671875,14.3433036 C140.447321,14.3433036 144.332143,16.3705357 144.332143,18.8727679 Z" id="Path" fill="#FFFFFF"></path>
                            <path d="M135.714286,23.8008929 C131.523753,23.6466795 127.348983,23.2017108 123.220089,22.4691964 C114.050893,20.8745536 114.050893,19.3732143 114.050893,18.8727679 C114.050893,18.3723214 114.050893,16.8794643 123.220089,15.2848214 C127.348983,14.5523071 131.523753,14.1073384 135.714286,13.953125 C140.803571,13.953125 144.764732,16.1160714 144.764732,18.8727679 C144.764732,21.6294643 140.744196,23.8008929 135.714286,23.8008929 Z M135.714286,14.725 C131.566435,14.8810748 127.434298,15.3231965 123.347321,16.0482143 C116.620982,17.21875 114.822768,18.3808036 114.822768,18.8727679 C114.822768,19.3647321 116.620982,20.5691964 123.347321,21.7058036 C127.434356,22.4289684 131.56656,22.8682631 135.714286,23.0205357 C140.201339,23.0205357 143.984375,21.1290179 143.984375,18.8727679 C143.984375,16.6165179 140.158929,14.725 135.714286,14.725 Z" id="Shape" fill="#231F20"></path>
                            <path d="M70.89375,18.8727679 C70.89375,21.4174107 74.7700893,23.4107143 79.5540179,23.4107143 C84.3379464,23.4107143 100.835714,21.3834821 100.835714,18.8727679 C100.835714,16.3620536 84.3294643,14.3433036 79.5540179,14.3433036 C74.7785714,14.3433036 70.89375,16.3705357 70.89375,18.8727679 Z" id="Path" fill="#FFFFFF"></path>
                            <path d="M79.5540179,23.8008929 C74.4647321,23.8008929 70.5120536,21.6379464 70.5120536,18.8727679 C70.5120536,16.1075893 74.4816964,13.953125 79.5540179,13.953125 C83.7469429,14.1020474 87.9245086,14.5413436 92.0566964,15.2678571 C101.225893,16.8625 101.225893,18.3638393 101.225893,18.8558036 C101.225893,19.3477679 101.225893,20.8575893 92.0566964,22.4522321 C87.9253041,23.190124 83.7477326,23.6407576 79.5540179,23.8008929 L79.5540179,23.8008929 Z M79.5540179,14.725 C75.0669643,14.725 71.2839286,16.625 71.2839286,18.8727679 C71.2839286,21.1205357 75.0669643,23.0205357 79.5540179,23.0205357 C83.7017437,22.8682631 87.8339479,22.4289684 91.9209821,21.7058036 C98.6558036,20.5352679 100.403125,19.3732143 100.403125,18.8727679 C100.403125,18.3723214 98.6133929,17.1763393 91.9209821,16.0482143 C87.8340057,15.3231965 83.7018689,14.8810748 79.5540179,14.725 Z" id="Shape" fill="#231F20"></path>
                            <rect id="Rectangle" fill="#FFFFFF" x="52.5723214" y="70.2915179" width="12.2651786" height="41.0875" rx="2.60401786"></rect>
                            <path d="M62.225,111.769196 L55.1763393,111.769196 C53.5226903,111.769196 52.1821429,110.428649 52.1821429,108.775 L52.1821429,72.9464286 C52.1821429,71.2927795 53.5226903,69.9522321 55.1763393,69.9522321 L62.225,69.9522321 C63.0191103,69.9522321 63.7806958,70.2676912 64.3422166,70.829212 C64.9037374,71.3907327 65.2191964,72.1523183 65.2191964,72.9464286 L65.2191964,108.817411 C65.1960062,110.454474 63.8622272,111.769196 62.225,111.769196 L62.225,111.769196 Z M55.1763393,70.6816964 C53.9489851,70.6816964 52.9540179,71.6766636 52.9540179,72.9040179 L52.9540179,108.775 C52.9586685,110.000423 53.9509166,110.992671 55.1763393,110.997321 L62.225,110.997321 C63.4504227,110.992671 64.4426708,110.000423 64.4473214,108.775 L64.4473214,72.9464286 C64.4473214,71.7190743 63.4523542,70.7241071 62.225,70.7241071 L55.1763393,70.6816964 Z" id="Shape" fill="#231F20"></path>
                            <rect id="Rectangle" fill="#FFFFFF" x="150.396875" y="70.2915179" width="12.2651786" height="41.0875" rx="2.60401786"></rect>
                            <path d="M160.049554,111.769196 L153.000893,111.769196 C151.347244,111.769196 150.006696,110.428649 150.006696,108.775 L150.006696,72.9464286 C150.006696,71.2927795 151.347244,69.9522321 153.000893,69.9522321 L160.049554,69.9522321 C161.703203,69.9522321 163.04375,71.2927795 163.04375,72.9464286 L163.04375,108.817411 C163.02056,110.454474 161.686781,111.769196 160.049554,111.769196 L160.049554,111.769196 Z M153.000893,70.6816964 C151.773539,70.6816964 150.778571,71.6766636 150.778571,72.9040179 L150.778571,108.775 C150.783222,110.000423 151.77547,110.992671 153.000893,110.997321 L160.049554,110.997321 C161.274976,110.992671 162.267224,110.000423 162.271875,108.775 L162.271875,72.9464286 C162.271875,72.3570323 162.037738,71.7917761 161.620972,71.37501 C161.204206,70.9582439 160.63895,70.7241071 160.049554,70.7241071 L153.000893,70.6816964 Z" id="Shape" fill="#231F20"></path>
                            <rect id="Rectangle" fill="#FFFFFF" transform="translate(107.612946, 50.197321) rotate(90.000000) translate(-107.612946, -50.197321) " x="101.480357" y="27.2870536" width="12.2651786" height="45.8205357" rx="2.75669643"></rect>
                            <path d="M127.775,56.7200893 L87.459375,56.7200893 C85.7214039,56.7200893 84.3125,55.3111854 84.3125,53.5732143 L84.3125,46.7875 C84.3171605,45.051463 85.723338,43.6452855 87.459375,43.640625 L127.775,43.640625 C129.509658,43.6453006 130.913393,45.052836 130.913393,46.7875 L130.913393,53.5732143 C130.913393,55.3078783 129.509658,56.7154136 127.775,56.7200893 L127.775,56.7200893 Z M87.459375,44.4549107 C86.1523833,44.4549107 85.0928571,45.5144368 85.0928571,46.8214286 L85.0928571,53.6071429 C85.0928571,54.9141346 86.1523833,55.9736607 87.459375,55.9736607 L127.775,55.9736607 C129.078678,55.968988 130.133036,54.9108293 130.133036,53.6071429 L130.133036,46.8214286 C130.133036,45.5177422 129.078678,44.4595834 127.775,44.4549107 L87.459375,44.4549107 Z" id="Shape" fill="#231F20"></path>
                            <polyline id="Path" fill="#FFFFFF" points="128.105804 189.075446 128.105804 98.3165179 87.1200893 98.3165179 87.1200893 189.075446"></polyline>
                            <path d="M128.080357,189.465625 C127.866758,189.461127 127.694677,189.289045 127.690179,189.075446 L127.690179,98.7066964 L87.4848214,98.7066964 L87.4848214,189.075446 C87.4803231,189.289045 87.3082415,189.461127 87.0946429,189.465625 C86.8824728,189.461012 86.7129464,189.287667 86.7129464,189.075446 L86.7129464,98.3165179 C86.7129464,98.1042977 86.8824728,97.9309528 87.0946429,97.9263393 L128.080357,97.9263393 C128.293956,97.9308376 128.466037,98.1029192 128.470536,98.3165179 L128.470536,189.075446 C128.466037,189.289045 128.293956,189.461127 128.080357,189.465625 L128.080357,189.465625 Z" id="Path" fill="#231F20"></path>
                            <polygon id="Path" fill="#FFFFFF" points="150.396875 71.7928571 128.105804 71.7928571 128.105804 56.3299107 87.1200893 56.3299107 87.1200893 71.7928571 64.8375 71.7928571 64.8375 109.148214 87.1200893 109.148214 87.1200893 140.303125 128.105804 140.303125 128.105804 109.148214 150.396875 109.148214"></polygon>
                            <path d="M128.080357,140.693702 L87.1200893,140.693702 C86.9064906,140.688805 86.734409,140.516724 86.7299107,140.303125 L86.7299107,109.529911 L64.8375,109.529911 C64.7348063,109.532193 64.6355269,109.492989 64.5620998,109.421158 C64.4886727,109.349327 64.4473214,109.250933 64.4473214,109.148214 L64.4473214,71.8267857 C64.4473214,71.7240666 64.4886727,71.6256727 64.5620998,71.5538419 C64.6355269,71.482011 64.7348063,71.4428066 64.8375,71.4450893 L86.7299107,71.4450893 L86.7299107,56.3299107 C86.734409,56.116312 86.9064906,55.9442304 87.1200893,55.9397321 L128.080357,55.9397321 C128.293956,55.9442304 128.466037,56.116312 128.470536,56.3299107 L128.470536,71.4111607 L150.371429,71.4111607 C150.582234,71.4111607 150.753125,71.582052 150.753125,71.7928571 L150.753125,109.114286 C150.753125,109.325091 150.582234,109.495982 150.371429,109.495982 L128.495982,109.495982 L128.495982,140.269196 C128.503328,140.382277 128.462204,140.493141 128.382889,140.574075 C128.303573,140.655008 128.193563,140.698364 128.080357,140.693702 L128.080357,140.693702 Z M87.5102679,139.955357 L127.715625,139.955357 L127.715625,109.148214 C127.715625,108.932725 127.890314,108.758036 128.105804,108.758036 L150.006696,108.758036 L150.006696,72.1830357 L128.080357,72.1830357 C127.866758,72.1785374 127.694677,72.0064558 127.690179,71.7928571 L127.690179,56.7200893 L87.4848214,56.7200893 L87.4848214,71.7928571 C87.4803231,72.0064558 87.3082415,72.1785374 87.0946429,72.1830357 L65.2191964,72.1830357 L65.2191964,108.758036 L87.1200893,108.758036 C87.335579,108.758036 87.5102679,108.932725 87.5102679,109.148214 L87.5102679,139.955357 Z" id="Shape" fill="#231F20"></path>
                            <rect id="Rectangle" fill="#FFFFFF" x="89.0370536" y="34.5392857" width="37.1517857" height="9.57633929"></rect>
                            <path d="M126.188839,44.5058036 L89.0625,44.5058036 C88.9597809,44.5058289 88.861387,44.4644523 88.7895561,44.3910252 C88.7177253,44.3175981 88.6785209,44.2183187 88.6807092,44.115625 L88.6807092,34.5392857 C88.6807092,34.3284806 88.8516949,34.1575893 89.0625,34.1575893 L126.214286,34.1575893 C126.426506,34.1575893 126.599851,34.3271157 126.604576,34.5392857 L126.604576,44.1071429 C126.607081,44.2166534 126.563543,44.32222 126.484488,44.3980476 C126.405434,44.4738752 126.298146,44.5129789 126.188839,44.5058036 Z M89.4272321,43.7339286 L125.798661,43.7339286 L125.798661,34.9294643 L89.4272321,34.9294643 L89.4272321,43.7339286 Z" id="Shape" fill="#231F20"></path>
                            <rect id="Rectangle" fill="#FFFFFF" x="98.1299107" y="18.8727679" width="18.9660714" height="15.6665179"></rect>
                            <path d="M117.095982,34.9294643 L98.1299107,34.9294643 C97.916312,34.924966 97.7442304,34.7528844 97.7397321,34.5392857 L97.7397321,18.8727679 C97.7443456,18.6605978 97.9176905,18.4910714 98.1299107,18.4910714 L117.095982,18.4910714 C117.308202,18.4910714 117.481547,18.6605978 117.486161,18.8727679 L117.486161,34.5392857 C117.481662,34.7528844 117.309581,34.924966 117.095982,34.9294643 Z M98.5200893,34.1575893 L116.705804,34.1575893 L116.705804,19.2629464 L98.5200893,19.2629464 L98.5200893,34.1575893 Z" id="Shape" fill="#231F20"></path>
                            <ellipse id="Oval" fill="#FFFFFF" cx="107.612946" cy="18.8727679" rx="13.3084821" ry="9.31339286"></ellipse>
                            <path d="M107.612946,28.5763393 C100.063839,28.5763393 93.9142857,24.225 93.9142857,18.8727679 C93.9142857,13.5205357 100.089286,9.17767857 107.612946,9.17767857 C115.136607,9.17767857 121.294643,13.5714286 121.294643,18.8727679 C121.294643,24.1741071 115.170536,28.5763393 107.612946,28.5763393 Z M107.612946,9.915625 C100.487946,9.915625 94.6946429,13.9191964 94.6946429,18.8388393 C94.6946429,23.7584821 100.487946,27.7705357 107.612946,27.7705357 C114.737946,27.7705357 120.539732,23.7669643 120.539732,18.8388393 C120.539732,13.9107143 114.737946,9.94955357 107.612946,9.94955357 L107.612946,9.915625 Z" id="Shape" fill="#231F20"></path>
                            <rect id="Rectangle" fill="#FFFFFF" transform="translate(107.621429, 138.445536) rotate(90.000000) translate(-107.621429, -138.445536) " x="101.488839" y="115.535268" width="12.2651786" height="45.8205357" rx="2.75669643"></rect>
                            <path d="M127.775,144.968304 L87.459375,144.968304 C85.724711,144.968304 84.3171756,143.564568 84.3125,141.829911 L84.3125,135.044196 C84.3171756,133.309539 85.724711,131.905804 87.459375,131.905804 L127.775,131.905804 C129.508287,131.905804 130.913393,133.31091 130.913393,135.044196 L130.913393,141.829911 C130.913393,142.662264 130.582742,143.460527 129.994179,144.04909 C129.405616,144.637652 128.607354,144.968304 127.775,144.968304 L127.775,144.968304 Z M87.459375,132.703125 C86.1523833,132.703125 85.0928571,133.762651 85.0928571,135.069643 L85.0928571,141.855357 C85.0928571,143.162349 86.1523833,144.221875 87.459375,144.221875 L127.775,144.221875 C129.078678,144.217202 130.133036,143.159044 130.133036,141.855357 L130.133036,135.069643 C130.133036,133.765956 129.078678,132.707798 127.775,132.703125 L87.459375,132.703125 Z" id="Shape" fill="#231F20"></path>
                            <path d="M198.991071,99.8348214 C193.838057,99.8348214 189.660714,95.6574782 189.660714,90.5044643 C189.660714,85.3514503 193.838057,81.1741071 198.991071,81.1741071 C204.144085,81.1741071 208.321429,85.3514503 208.321429,90.5044643 C208.321429,95.6574782 204.144085,99.8348214 198.991071,99.8348214 Z M198.991071,82.0223214 C194.306513,82.0223214 190.508929,85.8199061 190.508929,90.5044643 C190.508929,95.1890224 194.306513,98.9866071 198.991071,98.9866071 C203.67563,98.9866071 207.473214,95.1890224 207.473214,90.5044643 C207.454529,85.8331615 203.662412,82.0562126 198.991071,82.05625 L198.991071,82.0223214 Z" id="Shape" fill="#D1D3D4"></path>
                            <circle id="Oval" fill="#F29130" cx="198.991071" cy="90.5214286" r="7.01473214"></circle>
                            <path d="M198.991071,114.797321 C185.583866,114.797321 174.715179,103.928634 174.715179,90.5214286 C174.715179,77.1142232 185.583866,66.2455357 198.991071,66.2455357 C212.398277,66.2455357 223.266964,77.1142232 223.266964,90.5214286 C223.248276,103.920885 212.390528,114.778633 198.991071,114.797321 Z M198.991071,69.6383929 C187.457689,69.6383929 178.108036,78.9880464 178.108036,90.5214286 C178.108036,102.054811 187.457689,111.404464 198.991071,111.404464 C210.524454,111.404464 219.874107,102.054811 219.874107,90.5214286 C219.860086,78.9938591 210.518641,69.6524138 198.991071,69.6383929 L198.991071,69.6383929 Z" id="Shape" fill="#F29130"></path>
                            <path d="M198.991071,92.2178571 C198.691575,92.2121887 198.398919,92.1273186 198.142857,91.971875 L178.820536,80.275 C178.302341,79.9598407 177.991645,79.392168 178.005484,78.7858186 C178.019322,78.1794693 178.355593,77.6265622 178.887626,77.3353721 C179.41966,77.0441821 180.066627,77.0589478 180.584821,77.3741071 L198.991071,88.5196429 L216.294643,77.3995536 C217.078158,76.9526084 218.074425,77.196972 218.562204,77.9557389 C219.049983,78.7145058 218.858679,79.7223081 218.126786,80.2495536 L199.907143,91.9464286 C199.634097,92.1228015 199.316127,92.2170147 198.991071,92.2178571 Z" id="Path" fill="#F29130"></path>
                            <path d="M198.991071,114.797321 C198.05416,114.797321 197.294643,114.037804 197.294643,113.100893 L197.294643,90.5214286 C197.294643,89.5845169 198.05416,88.825 198.991071,88.825 C199.927983,88.825 200.6875,89.5845169 200.6875,90.5214286 L200.6875,113.100893 C200.6875,114.037804 199.927983,114.797321 198.991071,114.797321 Z" id="Path" fill="#F29130"></path>
                            <rect id="Rectangle" fill="#FFFFFF" x="80.9026786" y="156.63125" width="6.21741071" height="15.853125"></rect>
                            <path d="M87.1200893,172.874554 L80.9026786,172.874554 C80.6890799,172.870055 80.5169983,172.697974 80.5125,172.484375 L80.5125,156.639732 C80.5125,156.53625 80.553608,156.437007 80.6267807,156.363834 C80.6999533,156.290662 80.7991968,156.249554 80.9026786,156.249554 L87.1200893,156.249554 C87.2235711,156.249554 87.3228145,156.290662 87.3959872,156.363834 C87.4691599,156.437007 87.5102679,156.53625 87.5102679,156.639732 L87.5102679,172.484375 C87.5057696,172.697974 87.333688,172.870055 87.1200893,172.874554 L87.1200893,172.874554 Z M81.2928571,172.094196 L86.7383929,172.094196 L86.7383929,157.021429 L81.2928571,157.021429 L81.2928571,172.094196 Z" id="Shape" fill="#231F20"></path>
                            <circle id="Oval" fill="#FFFFFF" cx="52.5723214" cy="163.001339" r="20.9848214"></circle>
                            <path d="M52.5892857,184.376339 C43.9439052,184.376339 36.1498046,179.168488 32.8413607,171.181198 C29.5329168,163.193908 31.3616711,154.000139 37.4748783,147.886932 C43.5880854,141.773725 52.781854,139.94497 60.7691441,143.253414 C68.7564342,146.561858 73.9642857,154.355959 73.9642857,163.001339 C73.950264,174.800613 64.3885594,184.362318 52.5892857,184.376339 Z M52.5892857,142.398213 C44.2553285,142.394783 36.7400787,147.412398 33.5484336,155.110986 C30.3567886,162.809574 32.1174102,171.672736 38.009195,177.566947 C43.9009797,183.461158 52.7634162,185.22543 60.4633178,182.036955 C68.1632194,178.84848 73.1839286,171.335297 73.1839286,163.001339 C73.1699188,151.631666 63.9589523,142.416906 52.5892857,142.398213 L52.5892857,142.398213 Z" id="Shape" fill="#231F20"></path>
                            <circle id="Oval" fill="#FFFFFF" cx="52.5723214" cy="163.001339" r="18.4147321"></circle>
                            <path d="M52.5892857,179.914732 C52.375687,179.910234 52.2036054,179.738152 52.1991071,179.524554 L52.1991071,176.428571 C52.2036054,176.214973 52.375687,176.042891 52.5892857,176.038393 C52.8014558,176.043006 52.9710323,176.216351 52.9709821,176.428571 L52.9709821,179.490625 C52.980406,179.598388 52.9446692,179.705227 52.8723045,179.785632 C52.7999398,179.866037 52.6974425,179.912792 52.5892857,179.914732 L52.5892857,179.914732 Z" id="Path" fill="#231F20"></path>
                            <path d="M52.5892857,149.701339 C52.375687,149.696841 52.2036054,149.524759 52.1991071,149.311161 L52.1991071,146.249107 C52.2167498,146.046968 52.3863793,145.892089 52.5892857,145.892854 C52.6920048,145.892854 52.7903987,145.934208 52.8622296,146.007635 C52.9340604,146.081063 52.9732648,146.180342 52.9709821,146.283036 L52.9709821,149.285714 C52.9779538,149.392071 52.9411122,149.496651 52.8690173,149.575154 C52.7969224,149.653658 52.6958507,149.69925 52.5892857,149.701339 Z" id="Path" fill="#231F20"></path>
                            <path d="M40.8075893,175.037512 C40.6509874,175.037345 40.5096511,174.943576 40.4486327,174.799351 C40.3876143,174.655125 40.418738,174.488392 40.5276786,174.375893 L42.6991071,172.212946 C42.849013,172.063041 43.0920584,172.063041 43.2419643,172.212946 C43.3918701,172.362852 43.3918701,172.605898 43.2419643,172.755804 L41.0790179,174.927232 C41.0068113,174.99863 40.9091311,175.038312 40.8075893,175.037512 L40.8075893,175.037512 Z" id="Path" fill="#231F20"></path>
                            <path d="M62.165625,153.670982 C62.0680826,153.656496 61.9799317,153.604822 61.9196429,153.526786 C61.7675728,153.374464 61.7675728,153.127768 61.9196429,152.975446 L64.0910714,150.8125 C64.162774,150.739978 64.2605164,150.699167 64.3625,150.699167 C64.4644836,150.699167 64.562226,150.739978 64.6339286,150.8125 C64.7859987,150.964822 64.7859987,151.211517 64.6339286,151.363839 L62.4455357,153.526786 C62.3766296,153.612036 62.2750414,153.664369 62.165625,153.670982 Z" id="Path" fill="#231F20"></path>
                            <path d="M39.0178571,163.272768 L35.9558036,163.272768 C35.8042632,163.295295 35.6535629,163.227052 35.5705286,163.098299 C35.4874943,162.969546 35.4874943,162.804114 35.5705286,162.675362 C35.6535629,162.546609 35.8042632,162.478365 35.9558036,162.500893 L39.0178571,162.500893 C39.1693975,162.478365 39.3200978,162.546609 39.4031321,162.675362 C39.4861664,162.804114 39.4861664,162.969546 39.4031321,163.098299 C39.3200978,163.227052 39.1693975,163.295295 39.0178571,163.272768 L39.0178571,163.272768 Z" id="Path" fill="#231F20"></path>
                            <path d="M69.2142857,163.272768 L66.1607143,163.272768 C65.9694842,163.24434 65.8279079,163.080162 65.8279079,162.88683 C65.8279079,162.693499 65.9694842,162.52932 66.1607143,162.500893 L69.23125,162.500893 C69.4224801,162.52932 69.5640564,162.693499 69.5640564,162.88683 C69.5640564,163.080162 69.4224801,163.24434 69.23125,163.272768 L69.2142857,163.272768 Z" id="Path" fill="#231F20"></path>
                            <path d="M42.9705357,153.670982 C42.8688118,153.672759 42.7707717,153.63293 42.6991071,153.560714 L40.5276786,151.397768 C40.3858114,151.243862 40.3906619,151.00543 40.5386711,150.857421 C40.6866804,150.709412 40.9251115,150.704561 41.0790179,150.846429 L43.2419643,153.009375 C43.3940344,153.161697 43.3940344,153.408392 43.2419643,153.560714 C43.1702998,153.63293 43.0722596,153.672759 42.9705357,153.670982 Z" id="Path" fill="#231F20"></path>
                            <path d="M64.3370536,175.0375 C64.2353297,175.039277 64.1372895,174.999448 64.065625,174.927232 L61.9196429,172.755804 C61.8471212,172.684101 61.8063094,172.586359 61.8063094,172.484375 C61.8063094,172.382391 61.8471212,172.284649 61.9196429,172.212946 C62.0719647,172.060876 62.3186603,172.060876 62.4709821,172.212946 L64.6339286,174.375893 C64.7859987,174.528215 64.7859987,174.77491 64.6339286,174.927232 C64.5562439,175.006233 64.4474738,175.046633 64.3370536,175.0375 L64.3370536,175.0375 Z" id="Path" fill="#231F20"></path>
                            <path d="M55.1339286,162.085268 C57.35625,164.460268 55.0830357,166.580804 52.8607143,164.205804 C50.6383929,161.830804 46.5075893,155.223214 46.5075893,155.223214 C46.5075893,155.223214 52.8691964,159.701786 55.1339286,162.085268 Z" id="Path" fill="#231F20"></path>
                            <polygon id="Path" fill="#231F20" points="87.1200893 66.5254464 128.105804 59.9602679 128.105804 56.3299107 87.1200893 56.3299107"></polygon>
                            <path d="M87.1200893,66.9495536 C86.8877562,66.945041 86.7004947,66.7577795 86.6959821,66.5254464 L86.6959821,56.346875 C86.6959821,56.1126471 86.8858614,55.9227679 87.1200893,55.9227679 L128.080357,55.9227679 C128.314585,55.9227679 128.504464,56.1126471 128.504464,56.346875 L128.504464,59.9772321 C128.502991,60.1841242 128.352447,60.3597588 128.148214,60.3928571 L87.1625,66.9580357 L87.1200893,66.9495536 Z M87.5441964,56.7709821 L87.5441964,66.0419643 L127.681696,59.6125 L127.681696,56.7709821 L87.5441964,56.7709821 Z" id="Shape" fill="#231F20"></path>
                            <polygon id="Path" fill="#231F20" points="87.1200893 153.289286 128.105804 147.054911 127.775 144.578125 87.459375 144.578125"></polygon>
                            <path d="M87.1200893,153.713393 C87.016598,153.71131 86.9172844,153.672186 86.8401786,153.603125 C86.7471403,153.518464 86.6946766,153.398106 86.6959583,153.272321 L87.0352679,144.561161 C87.0443782,144.333583 87.2316152,144.153836 87.459375,144.154018 L127.775,144.154018 C127.987475,144.156734 128.165143,144.316273 128.190625,144.527232 L128.529911,146.995536 C128.56028,147.224452 128.401924,147.435594 128.173661,147.470536 L87.1879464,153.704911 L87.1200893,153.713393 Z M87.8665179,145.002232 L87.5696429,152.788839 L127.630804,146.741071 L127.401786,145.044643 L87.8665179,145.002232 Z" id="Shape" fill="#231F20"></path>
                            <rect id="Rectangle" fill="#FFFFFF" x="165.308482" y="140.303125" width="19.8482143" height="6.31071429" rx="1.97633929"></rect>
                            <path d="M183.214286,147.037946 L167.293304,147.037946 C165.966195,147.037946 164.889048,145.964601 164.884375,144.6375 L164.884375,142.287946 C164.884375,140.957532 165.962889,139.879018 167.293304,139.879018 L183.214286,139.879018 C184.5447,139.879018 185.623214,140.957532 185.623214,142.287946 L185.623214,144.6375 C185.618541,145.964601 184.541395,147.037946 183.214286,147.037946 Z M167.327232,140.727232 C166.465273,140.727232 165.766518,141.425988 165.766518,142.287946 L165.766518,144.6375 C165.771184,145.496144 166.468575,146.189755 167.327232,146.189755 L183.214286,146.189755 C183.627431,146.19199 184.02443,146.029449 184.317367,145.738104 C184.610304,145.446759 184.775,145.050651 184.775,144.6375 L184.775,142.287946 C184.775,141.425988 184.076244,140.727232 183.214286,140.727232 L167.327232,140.727232 Z" id="Shape" fill="#D1D3D4"></path>
                            <rect id="Rectangle" fill="#FFFFFF" transform="translate(202.850446, 39.331696) rotate(90.000000) translate(-202.850446, -39.331696) " x="192.926339" y="36.1763393" width="19.8482143" height="6.31071429" rx="1.97633929"></rect>
                            <path d="M204.029464,49.6799107 L201.671429,49.6799107 C200.345699,49.6799107 199.270982,48.6051942 199.270982,47.2794643 L199.270982,31.3839286 C199.270982,30.0581986 200.345699,28.9834821 201.671429,28.9834821 L204.029464,28.9834821 C205.355194,28.9834821 206.429911,30.0581986 206.429911,31.3839286 L206.429911,47.2794643 C206.429911,48.6051942 205.355194,49.6799107 204.029464,49.6799107 L204.029464,49.6799107 Z M201.671429,29.8316964 C200.814154,29.8316964 200.119196,30.5266544 200.119196,31.3839286 L200.119196,47.2794643 C200.119196,48.1367384 200.814154,48.8316964 201.671429,48.8316964 L204.029464,48.8316964 C204.886738,48.8316964 205.581696,48.1367384 205.581696,47.2794643 L205.581696,31.3839286 C205.581696,30.5266544 204.886738,29.8316964 204.029464,29.8316964 L201.671429,29.8316964 Z" id="Shape" fill="#D1D3D4"></path>
                        </g>
                        <g id="Group-20" transform="translate(0.000000, 1.000000)">
                            <path d="M27.4275005,36.0143632 C27.4275005,36.0143632 -0.192925043,77.2152142 0.396862191,77.6441504 C0.986649425,78.0730866 13.9083516,83.3658525 13.9083516,83.3658525 L30.1619686,67.6177674 L27.4275005,36.0143632 Z" id="Path" fill="#231F20"></path>
                            <path d="M13.9083516,83.7488313 C13.8601028,83.7559596 13.8110684,83.7559596 13.7628196,83.7488313 C11.5951601,82.8603206 0.741543042,78.3871291 0.174734532,77.9811717 C-0.269520788,77.6594696 -0.491648447,77.4986185 13.3721813,56.4884057 C20.127926,46.2552142 27.0445218,35.9377674 27.1134579,35.8075547 C27.2040877,35.6750141 27.3677723,35.6130782 27.5234409,35.6524231 C27.6791096,35.6917679 27.7937088,35.8240392 27.8104792,35.9837249 L30.5372877,67.6177674 C30.5502978,67.7324055 30.5075746,67.8463338 30.4223941,67.9241504 L14.1764367,83.6415972 C14.1036324,83.7096142 14.0079801,83.7478751 13.9083516,83.7488313 L13.9083516,83.7488313 Z M0.887074957,77.4526611 C2.27345794,78.1267036 9.12111751,80.9684057 13.8623941,82.9139376 L29.8019686,67.4875547 L27.1440962,37.1326611 C16.8572877,52.4824483 2.1355856,74.7488313 0.848777085,77.4526611 L0.887074957,77.4526611 Z" id="Shape" fill="#231F20"></path>
                            <path d="M71.6232452,36.25181 L89.3168622,66.4152142 C89.3168622,66.4152142 85.287926,76.1122355 80.4547345,74.9479802 C75.621543,73.7837249 63.7721813,48.4688313 63.7721813,48.4688313 L71.6232452,36.25181 Z" id="Path" fill="#231F20"></path>
                            <path d="M81.3049473,75.422935 C80.9978704,75.4246291 80.6917431,75.3886141 80.3934579,75.3156398 C75.4377133,74.1130866 63.9100537,49.6330866 63.4275005,48.5913845 C63.3584911,48.478546 63.3584911,48.3365633 63.4275005,48.2237249 L71.2785643,36.0450015 C71.3488775,35.9354082 71.4700567,35.8688313 71.6002664,35.8688313 L71.6002664,35.8688313 C71.7311935,35.8734763 71.8502235,35.9460555 71.914309,36.0603206 L89.6462239,66.2237249 C89.6994982,66.3297493 89.6994982,66.4547217 89.6462239,66.5607462 C89.5389899,66.9437249 85.954309,75.422935 81.3049473,75.422935 Z M64.2011175,48.4688313 C67.5636707,55.6075547 76.7857984,73.6688313 80.5696281,74.5803206 C84.6904792,75.5760653 88.3517558,67.6867036 88.9185643,66.4458525 L71.607926,36.9794696 L64.2011175,48.4688313 Z" id="Shape" fill="#231F20"></path>
                            <polygon id="Path" fill="#231F20" points="28.7296281 77.6441504 25.3517558 163.293512 37.047926 163.293512 47.5109047 102.208406 53.3398409 162.221172 65.2964367 162.221172 65.687075 83.3658525"></polygon>
                            <path d="M37.047926,163.676568 L25.3517558,163.676568 C25.2474727,163.676568 25.1476651,163.634129 25.0753856,163.558958 C25.003106,163.483787 24.9646057,163.382393 24.9684702,163.278193 L28.3466494,77.6288313 C28.350769,77.5191934 28.4008049,77.4163419 28.4845218,77.345427 C28.5705394,77.276056 28.681511,77.2455388 28.7909047,77.2611717 L65.740692,82.9905334 C65.92985,83.0138657 66.0714873,83.1752664 66.0700645,83.3658525 L65.6794154,162.25947 C65.6713359,162.466275 65.5033635,162.630888 65.2964367,162.634789 L53.3168622,162.634789 C53.1194451,162.635778 52.953623,162.486538 52.9338835,162.290108 L47.380692,105.119044 L37.4232452,163.400746 C37.3748184,163.566909 37.2209674,163.679942 37.047926,163.676568 Z M25.7500537,162.910533 L36.7262239,162.910533 L47.127926,102.147129 C47.127926,101.935616 47.2993914,101.76415 47.5109047,101.76415 C47.7224181,101.76415 47.8938835,101.935616 47.8938835,102.147129 L53.6921813,161.815214 L64.9211175,161.815214 L65.3117558,83.6875547 L29.1049473,78.0807462 L25.7500537,162.910533 Z" id="Shape" fill="#231F20"></path>
                            <path d="M51.1109047,149.82798 C52.4666494,150.027129 60.4019686,151.582023 61.0147345,149.82798 C61.3744969,148.787338 62.0695775,147.895588 62.9909047,147.292661 L68.061543,147.292661 L65.7253728,171.083299 C65.7253728,171.083299 76.8394154,177.90798 76.8394154,179.072236 C76.8394154,180.236491 58.0581388,176.383725 58.0581388,176.383725 L57.6292026,178.237342 L54.3202664,177.846704 L51.1109047,149.82798 Z" id="Path" fill="#F29130"></path>
                            <path d="M39.8819686,149.82798 C38.5262239,150.027129 30.5909047,151.582023 29.9781388,149.82798 C29.6313141,148.787233 28.9499664,147.890439 28.0402664,147.277342 L22.9313303,147.277342 L25.2292026,171.06798 C25.2292026,171.06798 14.1228196,177.892661 14.1228196,179.056916 C14.1228196,180.221172 32.9347345,176.383725 32.9347345,176.383725 L33.3636707,178.237342 L36.6726069,177.846704 L39.8819686,149.82798 Z" id="Path" fill="#F29130"></path>
                            <path d="M60.807926,33.8467036 C60.807926,33.8467036 38.0896281,31.5488313 33.6700537,35.1641504 C29.2504792,38.7794696 27.4275005,86.4832994 27.4275005,86.4832994 L65.380692,87.8850015 C65.380692,87.8850015 69.1032452,41.8662781 60.807926,33.8467036 Z" id="Path" fill="#231F20"></path>
                            <path d="M65.380692,88.298981 L65.380692,88.298981 L27.4275005,86.8969164 C27.3288196,86.88856 27.2364124,86.8450743 27.167075,86.7743632 C27.0978728,86.6997489 27.0619361,86.6002318 27.0675005,86.4986185 C27.1364367,84.545427 28.9440962,38.5573419 33.4402664,34.8730866 C37.9364367,31.1888313 59.927075,33.3411717 60.861543,33.4637249 C60.9482599,33.4717283 61.0294949,33.5096379 61.0913303,33.5709589 C64.607075,36.97181 66.4530324,47.1667036 66.5985643,63.8798951 C66.7057984,76.2730866 65.7866494,87.8313845 65.7789899,87.9462781 C65.7626899,88.1517804 65.5866479,88.3075098 65.380692,88.298981 Z M27.8487771,86.1462781 L65.0283516,87.5326611 C65.3500537,83.2050015 68.207075,41.9045759 60.6394154,34.2296823 C58.7628196,34.0458525 37.9900537,32.1462781 33.9075005,35.478193 C30.4300537,38.3122355 28.354309,72.6424483 27.8257984,86.1462781 L27.8487771,86.1462781 Z" id="Shape" fill="#231F20"></path>
                            <path d="M48.0623941,59.4909589 L48.0623941,59.4909589 C47.9075068,59.4826079 47.7722338,59.3834077 47.7177133,59.238193 C46.3849473,55.6305334 39.767075,37.5539376 40.5100537,35.8611717 C40.6000603,35.6722257 40.8229864,35.587784 41.0155856,35.6696823 C41.2064577,35.7537311 41.2949876,35.9750558 41.2147345,36.1675547 C40.8394154,37.2322355 44.4317558,48.078193 48.1083516,58.0739376 C49.4334579,54.9641504 53.8300537,44.2867036 55.0019686,37.5845759 C55.0408408,37.3770319 55.2376012,37.2379427 55.4462239,37.2705334 C55.6530607,37.3092941 55.7898773,37.5076782 55.7526069,37.7147887 C54.4045218,45.665427 48.5296281,59.1615972 48.4683516,59.2611717 C48.4028419,59.4227711 48.2346627,59.5179669 48.0623941,59.4909589 Z" id="Path" fill="#FFFFFF"></path>
                            <path d="M42.0496281,32.5139376 L41.2836707,50.0313845 L41.0845218,54.8569164 L40.8087771,61.5896823 L40.6096281,66.4152142 L39.9892026,81.5505334 L22.1883516,80.7845759 C22.1883516,80.7845759 22.3185643,74.2892568 22.6326069,66.2313845 C22.6938835,64.6994696 22.7628196,63.0450015 22.8394154,61.398193 C22.9466494,59.1692568 23.061543,56.8943632 23.1917558,54.6730866 C23.2913303,53.0262781 23.3985643,51.4024483 23.5211175,49.8475547 C24.0113303,43.3215972 24.6623941,37.8450015 25.5202664,36.0603206 C28.1628196,30.5224483 42.0496281,32.5139376 42.0496281,32.5139376 Z" id="Path" fill="#F29130"></path>
                            <path d="M72.8411175,55.2552142 C72.8411175,57.4764908 72.7798409,59.7360653 72.7262239,61.9803206 C72.687926,63.6194696 72.6419686,65.2356398 72.5960111,66.8058525 C72.3049473,75.8671291 71.8836707,83.3658525 71.8836707,83.3658525 L54.1517558,81.9335121 L54.4581388,66.6143632 L54.5577133,61.7811717 L54.687926,55.0560653 L54.7875005,50.2305334 L55.1398409,32.7896823 C55.1398409,32.7896823 69.0266494,30.8058525 71.6232452,36.2824483 C72.4657984,38.0671291 72.7875005,43.6892568 72.8487771,50.4526611 C72.8487771,51.9845759 72.8487771,53.6007462 72.8411175,55.2552142 Z" id="Path" fill="#F29130"></path>
                            <path d="M30.1619686,96.2262781 C30.0120801,96.2244365 29.8759187,96.1385957 29.8096281,96.0041504 C29.7233414,95.8116602 29.8089566,95.5856361 30.0011175,95.4986185 C32.7107894,94.2382789 34.6886839,91.7998175 35.3628196,88.8884057 C35.401656,88.6842612 35.5935194,88.5462542 35.7994154,88.5743632 C35.900188,88.5912011 35.9900551,88.6476068 36.049031,88.7310362 C36.108007,88.8144656 36.1312021,88.9180015 36.1134579,89.0186185 C35.4281855,92.1861697 33.2871551,94.8440005 30.3381388,96.1879802 C30.2837304,96.2158081 30.2230196,96.2290061 30.1619686,96.2262781 L30.1619686,96.2262781 Z" id="Path" fill="#FFFFFF"></path>
                            <path d="M64.0785643,96.2263178 C63.992282,96.2251889 63.9087884,96.1955622 63.8411175,96.1420228 C61.7101101,94.3609822 60.5109035,91.7029761 60.5857984,88.9267036 C60.6006043,88.7151903 60.7840723,88.5557275 60.9955856,88.5705334 C61.2070989,88.5853393 61.3665617,88.7688073 61.3517558,88.9803206 C61.3211968,91.5022377 62.4128888,93.9073278 64.3313303,95.5445759 C64.4589316,95.6469136 64.5074537,95.8189949 64.4521106,95.9729177 C64.3967676,96.1268405 64.2497769,96.2286251 64.0862239,96.2263178 L64.0785643,96.2263178 Z" id="Path" fill="#FFFFFF"></path>
                            <path d="M47.4419686,101.159122 L47.4419686,101.159122 C47.2346855,101.159122 47.0666494,100.991008 47.0666494,100.783725 C47.0666494,100.385427 47.687075,89.4015972 47.7177133,88.9343632 C47.7171314,88.8318636 47.7602702,88.7339762 47.8363132,88.6652451 C47.9123561,88.596514 48.0140918,88.5634571 48.1160111,88.5743632 C48.2169797,88.5782932 48.3120983,88.6227694 48.379853,88.697732 C48.4476077,88.7726946 48.482274,88.8718103 48.4760111,88.9726611 C48.2998409,92.1513845 47.8249473,100.462023 47.8249473,100.783725 C47.8249683,100.884607 47.7843762,100.98125 47.7123248,101.051861 C47.6402734,101.122471 47.5428298,101.161103 47.4419686,101.159122 Z" id="Path" fill="#FFFFFF"></path>
                            <path d="M65.380692,88.2986185 L65.380692,88.2986185 L27.4275005,86.8969164 C27.2159872,86.8969164 27.0445218,86.725451 27.0445218,86.5139376 C27.0445218,86.3024243 27.2159872,86.1309589 27.4275005,86.1309589 L27.4275005,86.1309589 L65.3960111,87.5326611 C65.6075244,87.5326611 65.7789899,87.7041265 65.7789899,87.9156398 C65.7789899,88.1271531 65.6075244,88.2986185 65.3960111,88.2986185 L65.380692,88.2986185 Z" id="Path" fill="#FFFFFF"></path>
                            <path d="M23.5594154,49.8092568 L41.3219686,50.0313845 L41.1228196,54.8569164 L23.2300537,54.6347887 C23.3296281,52.9879802 23.4445218,51.3641504 23.5594154,49.8092568 Z" id="Path" fill="#FFFFFF"></path>
                            <path d="M72.8411175,55.2552142 L54.687926,55.025427 L54.7875005,50.1998951 L72.8487771,50.4220228 C72.8487771,51.9845759 72.8487771,53.6007462 72.8411175,55.2552142 Z" id="Path" fill="#FFFFFF"></path>
                            <path d="M22.8777133,61.3598951 L40.847075,61.5896823 L40.647926,66.4152142 L22.6785643,66.1930866 C22.7321813,64.6305334 22.8011175,63.0220228 22.8777133,61.3598951 Z" id="Path" fill="#FFFFFF"></path>
                            <path d="M72.7262239,61.9803206 C72.687926,63.6194696 72.6419686,65.2356398 72.5960111,66.8058525 L54.4581388,66.5837249 L54.5577133,61.7505334 L72.7262239,61.9803206 Z" id="Path" fill="#FFFFFF"></path>
                            <path d="M58.6096281,19.6764908 C58.4717558,19.3930866 59.8351601,16.199044 59.3755856,11.159044 C58.9160111,6.11904403 49.6555856,4.34202276 46.354309,4.77095893 C43.0530324,5.1998951 39.6828196,8.60074616 38.9934579,11.9556398 C38.3040962,15.3105334 39.7594154,21.2773419 39.7594154,21.2773419 L58.6096281,19.6764908 Z" id="Path" fill="#FFFFFF"></path>
                            <path d="M39.7440962,21.6603348 C39.5625248,21.6618566 39.4038352,21.5380788 39.3611175,21.3615972 C39.2998409,21.1164908 37.8904792,15.2339376 38.5951601,11.8713845 C39.3611175,8.24840573 42.861543,4.8092568 46.2547345,4.37266105 C48.5526069,4.07393765 54.3509047,4.8398951 57.567926,7.43649084 C58.780673,8.30353339 59.5729055,9.64059943 59.7509047,11.1207462 C59.9935225,13.7552761 59.7758064,16.4119313 59.1075005,18.97181 C59.0462239,19.2322355 58.9849473,19.5003206 58.9772877,19.5998951 C58.992604,19.6943627 58.9764568,19.791246 58.9313303,19.8756398 C58.8649951,19.9888835 58.7480058,20.0630719 58.6172877,20.0747887 L39.7747345,21.6603348 L39.7440962,21.6603348 Z M47.4036707,5.10032063 C47.0480283,5.0970866 46.692508,5.1149905 46.3389899,5.15393765 C43.2751601,5.55223552 39.9968622,8.76159722 39.3228196,12.0475547 C38.7560111,14.8203206 39.7287771,19.5769164 40.0121813,20.8713845 L58.2036707,19.3394696 C58.2036707,19.2015972 58.2726069,19.0330866 58.3262239,18.8109589 C58.9742921,16.3337094 59.1842617,13.7622293 58.9466494,11.2126611 C58.7859887,9.9502662 58.1022509,8.81348255 57.0623941,8.0798951 C54.6572877,6.08840573 50.1917558,5.1079802 47.4419686,5.1079802 L47.4036707,5.10032063 Z" id="Shape" fill="#231F20"></path>
                            <path d="M55.8138835,19.3624483 C56.327075,16.1530866 61.6581388,15.3564908 61.3977133,19.1403206 C61.3552324,20.4556132 60.8508265,21.713916 59.9730324,22.6943632 C59.0618512,23.6852606 57.6393686,24.0219249 56.380692,23.5445759" id="Path" fill="#FFFFFF"></path>
                            <path d="M57.5066494,24.1727141 C57.0685266,24.1752393 56.6349465,24.0838218 56.2351601,23.9045759 C56.0380458,23.8141316 55.9495213,23.5826061 56.0360111,23.3837249 C56.129568,23.1855902 56.3634757,23.0974511 56.5645218,23.1845759 C57.6656005,23.5784581 58.895481,23.2770168 59.6896281,22.4186185 C60.4856449,21.5050613 60.9403929,20.34383 60.9764367,19.1326611 C61.060692,17.9224483 60.501543,17.1641504 59.4445218,17.0415972 C57.9085302,16.9057766 56.5109314,17.9326508 56.181543,19.439044 C56.146251,19.6538984 55.9449692,19.8005953 55.7296281,19.7684057 C55.5147737,19.7331136 55.3680769,19.5318319 55.4002664,19.3164908 C55.7848485,17.3828211 57.5746202,16.0570643 59.5364367,16.2526611 C60.2345594,16.3122402 60.8749673,16.6641508 61.2995538,17.2215118 C61.7241404,17.7788728 61.8933374,18.4897425 61.7653728,19.1786185 C61.7249217,20.5964585 61.1819864,21.9537967 60.2334579,23.0084057 C59.5123703,23.7390632 58.5330938,24.1571812 57.5066494,24.1727141 L57.5066494,24.1727141 Z" id="Path" fill="#231F20"></path>
                            <path d="M42.5398409,19.3624483 C42.0266494,16.1530866 36.6955856,15.3564908 36.9636707,19.1403206 C36.9994302,20.4555922 37.5016845,21.7153004 38.380692,22.6943632 C39.2913847,23.6702186 40.7010081,23.9999374 41.9500537,23.5292568" id="Path" fill="#FFFFFF"></path>
                            <path d="M40.847075,24.1726611 C39.8093249,24.1571417 38.8202252,23.730093 38.0972877,22.985427 C37.1499067,21.9301046 36.6071468,20.573205 36.5653728,19.1556398 C36.4587007,18.482156 36.6338398,17.7944509 37.0496589,17.2540309 C37.4654781,16.7136109 38.0853398,16.3680919 38.7636707,16.2986185 C40.7254871,16.1030217 42.5152589,17.4287786 42.8998409,19.3624483 C42.9320305,19.5777894 42.7853336,19.7790711 42.5704792,19.8143632 C42.3551381,19.8465527 42.1538564,19.6998559 42.1185643,19.4850015 C41.8004317,17.9818445 40.4181548,16.9467745 38.8862239,17.0645759 C37.8292026,17.1871291 37.2700537,17.945427 37.354309,19.1556398 C37.4002571,20.3643638 37.8630342,21.5199533 38.6640962,22.4262781 C39.4650528,23.3005214 40.7153423,23.6032549 41.8275005,23.1922355 C42.0285465,23.1051107 42.2624542,23.1932498 42.3560111,23.3913845 C42.442501,23.5902656 42.3539765,23.8217912 42.1568622,23.9122355 C41.7447261,24.0942946 41.2975084,24.1832151 40.847075,24.1726611 Z" id="Path" fill="#231F20"></path>
                            <path d="M42.5398409,33.9845759 C42.5398409,33.9845759 44.447075,38.5803206 48.6675005,38.5803206 C51.0533473,38.6448184 53.2980634,37.4526765 54.580692,35.4398951 L54.3892026,33.1496823 L53.9755856,27.9335121 L53.5849473,23.0543632 L43.9875005,23.0543632 L43.6657984,27.0450015 L43.5662239,28.3394696 L42.5398409,33.9845759 Z" id="Path" fill="#FFFFFF"></path>
                            <path d="M48.6521813,38.9479802 C44.2326069,38.9479802 42.2564367,34.3522355 42.1721813,34.1377674 C42.1497689,34.0654209 42.1497689,33.9879863 42.1721813,33.9156398 L43.1985643,28.2858525 L43.6121813,23.0467036 C43.6283878,22.8400261 43.8032205,22.6820042 44.0104792,22.6866015 L53.607926,22.6866015 C53.8137278,22.6822187 53.9862621,22.8412209 53.9985643,23.0467036 L54.9789899,35.3862781 C54.9874322,35.4608645 54.9712957,35.5361681 54.9330324,35.6007462 C53.5856256,37.7561755 51.1927364,39.0314103 48.6521813,38.9479802 L48.6521813,38.9479802 Z M42.9457984,33.9156398 C43.2598409,34.5743632 45.1057984,38.1437249 48.6521813,38.1437249 C50.8562386,38.2144345 52.9398659,37.1392945 54.1594154,35.3020228 L53.2172877,23.4603206 L44.3475005,23.4603206 L43.9568622,28.3777674 L42.9457984,33.9156398 Z" id="Shape" fill="#231F20"></path>
                            <path d="M42.9151601,26.7003206 C43.0214598,27.291591 43.242653,27.8562841 43.5662239,28.3624483 C44.3728035,29.5294218 45.4573688,30.4771002 46.7219686,31.1198951 C48.7900537,32.2688313 51.8768622,33.5556398 54.381543,33.1726611 L53.967926,27.9564908 C52.1284504,28.1752614 50.2695293,28.1752614 48.4300537,27.9564908 C46.8016893,27.8966549 45.1922237,27.5866454 43.6581388,27.0373419 C43.4053728,26.9530866 43.1602664,26.8305334 42.9151601,26.7003206 Z" id="Path" fill="#231F20"></path>
                            <path d="M53.4317558,33.6169164 C50.8657984,33.6169164 48.0700537,32.3071291 46.5381388,31.4569164 C45.2137424,30.7848983 44.0807599,29.7889277 43.2445218,28.5615972 C42.8933947,28.0138519 42.653918,27.4021451 42.5398409,26.7615972 C42.5167299,26.6159569 42.5792896,26.4699841 42.700692,26.3862781 C42.8253868,26.3104447 42.9819546,26.3104447 43.1066494,26.3862781 C43.3378393,26.5159721 43.5756061,26.6335772 43.8189899,26.7386185 C45.3166922,27.2725475 46.887116,27.5747507 48.4760111,27.6347887 C50.2847766,27.8529348 52.1132031,27.8529348 53.9219686,27.6347887 C54.0263012,27.6234302 54.1309006,27.653709 54.2130324,27.719044 C54.2959939,27.7839345 54.3463769,27.8819014 54.3509047,27.9871291 L54.7645218,33.2032994 C54.7828105,33.4027874 54.6412086,33.5814756 54.4428196,33.6092568 C54.1063795,33.6351515 53.7685497,33.6377108 53.4317558,33.6169164 Z M43.474309,27.4126611 C43.5715826,27.6807019 43.6974132,27.9374989 43.8496281,28.1786185 C44.6159659,29.2985363 45.6544516,30.2052344 46.8675005,30.8135121 C48.4530324,31.6867036 51.4632452,33.1113845 53.9372877,32.8586185 L53.5849473,28.4084057 C51.8510997,28.5925545 50.1026247,28.5925545 48.3687771,28.4084057 C46.7008034,28.3440226 45.0526302,28.023688 43.4819686,27.4586185 L43.474309,27.4126611 Z" id="Shape" fill="#231F20"></path>
                            <path d="M48.5066494,29.1820268 L49.3645218,29.1820268 C53.4255773,29.1820268 56.7177133,25.8898868 56.7177133,21.8288313 L56.7177133,10.1709589 L41.1457984,10.1709589 L41.1457984,21.8288313 C41.1457984,23.7803467 41.9215577,25.6518215 43.3022056,27.0310328 C44.6828536,28.4102441 46.555135,29.1840556 48.5066494,29.1820268 L48.5066494,29.1820268 Z" id="Path" fill="#FFFFFF"></path>
                            <path d="M56.7177133,10.1709589 L56.7177133,21.8288313 C56.7177133,25.8898868 53.4255773,29.1820268 49.3645218,29.1820268 L48.5066494,29.1820268 C46.555135,29.1840556 44.6828536,28.4102441 43.3022056,27.0310328 C41.9215577,25.6518215 41.1457984,23.7803467 41.1457984,21.8288313 L41.1457984,10.1709589 L56.7177133,10.1709589 M56.7177133,9.40500148 L41.1457984,9.40500148 C40.7227717,9.40500148 40.3798409,9.74793231 40.3798409,10.1709589 L40.3798409,21.8288313 C40.3882826,26.3250927 44.0333608,29.966745 48.5296281,29.9709589 L49.3875005,29.9709589 C53.8825232,29.9667363 57.5254055,26.323854 57.5296281,21.8288313 L57.5296281,10.1709589 C57.5296281,9.74793231 57.1866973,9.40500148 56.7636707,9.40500148 L56.7177133,9.40500148 Z" id="Shape" fill="#231F20"></path>
                            <path d="M49.0504792,22.1045759 C48.6894298,22.1030618 48.3287911,22.0800423 47.9704792,22.0356398 C47.7614447,22.0116665 47.576439,21.8892782 47.4726069,21.7062781 C46.8981388,20.7488313 48.2385643,17.1105334 48.6445218,16.0075547 C48.6806388,15.9097007 48.7543904,15.8303549 48.8493475,15.7871926 C48.9443047,15.7440303 49.0525799,15.7406366 49.1500537,15.7777674 C49.3549348,15.8563305 49.4576837,16.085803 49.3798409,16.2909589 C48.5066494,18.5888313 47.9551601,20.7871291 48.1313303,21.2620228 C48.7882732,21.3305155 49.4505575,21.3305155 50.1075005,21.2620228 C50.2112383,21.2490898 50.3158315,21.2782768 50.3978838,21.343055 C50.4799361,21.4078331 50.5326004,21.5027967 50.5440962,21.6067036 C50.5592493,21.7108221 50.5308997,21.816589 50.4657035,21.8991707 C50.4005074,21.9817525 50.3042078,22.0338747 50.1994154,22.0432994 C49.8182803,22.0898809 49.4344068,22.1103541 49.0504792,22.1045759 L49.0504792,22.1045759 Z" id="Shape" fill="#231F20"></path>
                            <path d="M59.3832452,11.159044 C59.3832452,11.159044 56.380692,15.6628738 54.5653728,14.7667036 C52.7500537,13.8705334 51.807926,11.3964908 48.6445218,11.3352142 C45.9023941,11.2892568 44.3321813,15.2798951 42.0496281,14.705427 C40.6650033,14.3084709 39.5369973,13.3017255 38.9857984,11.9709589 C41.5066277,8.30019603 45.8202024,6.28563054 50.2530324,6.70883127 C58.0121813,7.28329935 59.3832452,11.159044 59.3832452,11.159044 Z" id="Path" fill="#FFFFFF"></path>
                            <path d="M55.0709047,15.2722407 C54.8308438,15.2728715 54.5942394,15.2150349 54.381543,15.1037249 C53.7294935,14.7304988 53.1359034,14.2633692 52.6198409,13.7173419 C51.6087771,12.7522355 50.5594154,11.7564908 48.6368622,11.718193 C47.4496281,11.718193 46.4385643,12.599044 45.4657984,13.4645759 C44.4930324,14.3301079 43.3134579,15.4177674 41.9577133,15.0730866 C40.4380636,14.6535343 39.1988859,13.5529861 38.6028196,12.0935121 C38.5536671,11.9838755 38.5536671,11.8584679 38.6028196,11.7488313 C41.2234652,7.973172 45.6776947,5.90565981 50.2530324,6.34117169 C58.2036707,6.92329935 59.6896281,10.8832994 59.7432452,11.05181 C59.7888602,11.1684536 59.7745583,11.3000313 59.7049473,11.4041504 C59.4445218,11.8177674 57.0394154,15.2722407 55.0709047,15.2722407 Z M48.5909047,10.9369164 L48.6521813,10.9369164 C50.8887771,10.9369164 52.0989899,12.13181 53.1636707,13.158193 C53.6272714,13.6476176 54.1586323,14.0680634 54.741543,14.4067036 C55.7755856,14.9352142 57.8053728,12.7445759 58.9313303,11.1284057 C58.5483516,10.3624483 56.6334579,7.58202276 50.207075,7.11478871 C46.0016363,6.72606031 41.9027958,8.58334741 39.4223941,12.0015972 C39.95561,13.1263455 40.9503503,13.9646098 42.1492026,14.2994696 C43.0913303,14.5369164 43.9492026,13.7632994 44.9372877,12.8747887 C45.9253728,11.9862781 47.1049473,10.9369164 48.5909047,10.9369164 Z" id="Shape" fill="#231F20"></path>
                            <path d="M38.9704792,11.9556398 C38.9569499,9.65350578 39.2140324,7.35775881 39.7364367,5.11563978 C40.5636707,2.05180999 46.8598409,-0.108190011 50.1457984,0.4586185 C53.4317558,1.02542701 57.9432452,3.52244829 58.5713303,5.00074616 C59.1994154,6.47904403 59.3372877,11.1284057 59.3372877,11.1284057 C59.3372877,11.1284057 46.7066494,4.51819297 38.9704792,11.9556398 Z" id="Path" fill="#FFFFFF"></path>
                            <path d="M38.9704792,12.3539376 C38.9222304,12.3610659 38.8731961,12.3610659 38.8249473,12.3539376 C38.6790632,12.2931872 38.5828922,12.1519359 38.5798409,11.9939376 C38.5603718,9.65609379 38.8174768,7.32415158 39.3457984,5.04670361 C40.2496281,1.67649084 46.7755856,-0.498828309 50.207075,0.0986184999 C53.6385643,0.696065308 58.2266494,3.22372488 58.954309,4.87053339 C59.6819686,6.5173419 59.7585643,10.998193 59.7585643,11.1820228 C59.764894,11.3218802 59.6944054,11.4540465 59.5747345,11.5267036 C59.4527243,11.5920664 59.3061065,11.5920664 59.1840962,11.5267036 C59.061543,11.4577674 46.6683516,5.10032063 39.2309047,12.2926611 C39.1545705,12.3443833 39.0618676,12.3661957 38.9704792,12.3539376 Z M49.0198409,0.765001479 C45.8104792,0.765001479 40.8164367,2.63393765 40.127075,5.21521424 C39.6567383,7.12903979 39.3998527,9.08907764 39.3611175,11.0594696 C46.2547345,5.33010786 56.380692,9.35904403 58.9389899,10.5232994 C58.8853728,9.19819297 58.701543,6.23393765 58.2266494,5.16159722 C57.6521813,3.86712914 53.3321813,1.41606531 50.061543,0.849256798 C49.7171198,0.793368126 49.368769,0.765192693 49.0198409,0.765001479 L49.0198409,0.765001479 Z" id="Shape" fill="#231F20"></path>
                            <path d="M49.487075,26.8688313 C48.3907995,26.8199751 47.322027,26.5101098 46.3696281,25.9650015 C46.2768831,25.9175847 46.2069164,25.835091 46.1752744,25.73585 C46.1436323,25.636609 46.1529357,25.5288408 46.2011175,25.4364908 C46.3029819,25.2423026 46.5426494,25.1669786 46.7372877,25.2679802 C48.1849473,26.0339376 49.4181388,26.2484057 50.4062239,25.9343632 C50.9853499,25.7650689 51.478308,25.3816571 51.7849473,24.8620228 C51.8868117,24.6678346 52.1264792,24.5925105 52.3211175,24.6935121 C52.5127712,24.7894119 52.591378,25.0218147 52.4972877,25.2143632 C52.0941733,25.917726 51.4403655,26.4429607 50.6666494,26.6850015 C50.2857534,26.808691 49.8875462,26.8707492 49.487075,26.8688313 L49.487075,26.8688313 Z" id="Path" fill="#231F20"></path>
                            <ellipse id="Oval" fill="#231F20" transform="translate(52.264862, 15.447074) rotate(-3.780000) translate(-52.264862, -15.447074) " cx="52.2648616" cy="15.4470735" rx="1" ry="1.0187234"></ellipse>
                            <ellipse id="Oval" fill="#231F20" transform="translate(45.707880, 15.924245) rotate(-3.780000) translate(-45.707880, -15.924245) " cx="45.7078796" cy="15.9242453" rx="1" ry="1.0187234"></ellipse>
                            <path d="M51.4709047,68.9045759 L44.6538835,68.9045759 C44.4423702,68.9045759 44.2709047,68.7331105 44.2709047,68.5215972 L44.2709047,59.1079802 C44.2709047,58.8964669 44.4423702,58.7250015 44.6538835,58.7250015 L51.4709047,58.7250015 C51.6824181,58.7250015 51.8538835,58.8964669 51.8538835,59.1079802 L51.8538835,68.5215972 C51.8498085,68.7313994 51.680707,68.900501 51.4709047,68.9045759 Z M45.0292026,68.1386185 L51.087926,68.1386185 L51.087926,59.4909589 L45.0292026,59.4909589 L45.0292026,68.1386185 Z" id="Shape" fill="#FFFFFF"></path>
                            <path d="M99.4351601,49.93181 C99.3202664,49.8628738 89.0487771,71.7615972 82.8138835,72.7343632 C76.5789899,73.7071291 73.5304792,68.9045759 76.2726069,63.5428738 C79.0147345,58.1811717 89.3168622,48.7215972 89.3168622,48.7215972 L101.181543,44.3403206 L99.4351601,49.93181 Z" id="Path" fill="#FFFFFF"></path>
                            <path d="M81.2666494,73.2475547 C79.1896978,73.3739046 77.1839256,72.4684417 75.9049473,70.8271291 C74.5032452,68.8815972 74.5032452,66.1011717 75.9049473,63.3820228 C78.6547345,58.0203206 88.6351601,48.8288313 89.0640962,48.4305334 C89.1012999,48.3938615 89.1456127,48.3651886 89.194309,48.3462781 L101.05899,43.9726611 C101.201474,43.9174261 101.363083,43.9503464 101.472607,44.0569164 C101.579841,44.1625489 101.618366,44.3196104 101.572181,44.4628738 L99.8028196,50.0467036 C99.7840715,50.0977532 99.7554402,50.1446045 99.7185643,50.1845759 C99.6496281,50.3071291 99.4198409,50.759044 99.1594154,51.2722355 C92.0283516,65.1973419 86.5440962,72.5505334 82.8598409,73.1250015 C82.3325382,73.2051927 81.8000131,73.2461561 81.2666494,73.2475547 L81.2666494,73.2475547 Z M89.554309,49.0662781 C88.727075,49.8322355 79.1985643,58.7479802 76.6249473,63.7420228 C75.3611175,66.1930866 75.3381388,68.6671291 76.5636707,70.3675547 C77.7892026,72.0679802 80.0257984,72.7650015 82.7526069,72.3437249 C85.1040962,71.9760653 89.7381388,67.9624483 98.4700537,50.8969164 C98.7994154,50.2458525 98.967926,49.9241504 99.0751601,49.7479802 L100.607075,44.9760653 L89.554309,49.0662781 Z" id="Shape" fill="#231F20"></path>
                            <polygon id="Path" fill="#FFFFFF" points="93.4683516 57.1164908 72.6649473 57.1164908 82.4692026 30.8441504 103.272607 30.8441504"></polygon>
                            <path d="M93.4683516,57.5071351 L72.6649473,57.5071351 C72.5363103,57.5078414 72.4155686,57.4451769 72.3421074,57.3395765 C72.2686463,57.2339761 72.2518838,57.0989782 72.2972877,56.9786185 L82.101543,30.7062781 C82.1566468,30.5504204 82.3038909,30.4461225 82.4692026,30.4458273 L103.272607,30.4458273 C103.401349,30.4443767 103.522217,30.5076887 103.594309,30.6143632 C103.670472,30.7213936 103.68774,30.8595378 103.640266,30.9820228 L93.8360111,57.2543632 C93.7765763,57.4057943 93.6310238,57.5058616 93.4683516,57.5071351 L93.4683516,57.5071351 Z M73.2317558,56.7411717 L93.1926069,56.7411717 L102.705798,31.2347887 L82.7449473,31.2347887 L73.2317558,56.7411717 Z" id="Shape" fill="#231F20"></path>
                            <polygon id="Path" fill="#231F20" points="89.5926069 30.0552142 88.2368622 33.6858525 96.5551601 33.4407462 97.887926 30.0552142"></polygon>
                            <path d="M98.247926,52.2143632 C98.3628196,51.8773419 102.476011,45.1292568 102.230905,42.8237249 C102.054735,41.1386185 95.6436707,38.1437249 94.2726069,38.3888313 C92.901543,38.6339376 97.0147345,41.3760653 97.0147345,41.3760653 C97.0147345,41.3760653 90.7185643,38.6262781 90.3202664,40.2424483 C89.9219686,41.8586185 96.287075,43.4747887 96.287075,43.4747887 C96.287075,43.4747887 89.5083516,42.2645759 89.3475005,43.6356398 C89.1866494,45.0067036 94.9160111,45.8109589 94.9160111,45.8109589 C94.9160111,45.8109589 89.5926069,45.4892568 90.4811175,46.6994696 C91.3696281,47.9096823 97.060692,49.5641504 97.060692,49.5641504" id="Path" fill="#FFFFFF"></path>
                            <path d="M88.2368622,34.0688313 C88.1146355,34.0683018 88.0003226,34.0082875 87.9304792,33.9079802 C87.8569508,33.8060039 87.8369959,33.6748718 87.8768622,33.5556398 L89.2326069,29.9173419 C89.2899516,29.7687194 89.433309,29.6711143 89.5926069,29.672226 L97.887926,29.672226 C98.013299,29.6738555 98.1299393,29.7367426 98.2001928,29.8405957 C98.2704464,29.9444488 98.285415,30.0761138 98.2402664,30.1930866 L96.9075005,33.5862781 C96.8515021,33.7280908 96.7152777,33.8219343 96.5628196,33.8237249 L88.2445218,34.0688313 L88.2368622,34.0688313 Z M89.8530324,30.438193 L88.7883516,33.2875547 L96.287075,33.0730866 L97.3287771,30.438193 L89.8530324,30.438193 Z" id="Shape" fill="#231F20"></path>
                            <path d="M95.727926,30.6909589 C95.8277962,30.3587275 95.8277962,30.0044669 95.727926,29.6722355 C95.5200743,29.1231854 95.0356481,28.7263061 94.4564367,28.6305334 C93.8806544,28.5490704 93.2961666,28.7007064 92.8326069,29.05181 C92.3843315,29.3646878 92.0656683,29.8304263 91.9364367,30.3615972 C91.8268443,30.8550459 91.9307062,31.3718298 92.2224325,31.7846225 C92.5141588,32.1974152 92.966625,32.4678356 93.4683516,32.5292568 C94.5501329,32.4967471 95.476,31.7434993 95.727926,30.6909589 Z" id="Path" fill="#231F20"></path>
                            <path d="M93.5755856,32.9198951 L93.4377133,32.9198951 C92.8445715,32.8770023 92.30069,32.574223 91.9517558,32.0926611 C91.5687622,31.5737745 91.4214515,30.9178247 91.5457984,30.2850015 C91.7037799,29.6664995 92.0755017,29.12384 92.5951601,28.7530866 C93.1446326,28.3455551 93.8330701,28.1720688 94.5100537,28.2705334 C95.214461,28.3990973 95.7976805,28.8919178 96.0419686,29.5650015 C96.1618044,29.9673315 96.1618044,30.395863 96.0419686,30.798193 L96.0419686,30.798193 C95.7401596,31.9489499 94.7585186,32.7934051 93.5755856,32.9198951 L93.5755856,32.9198951 Z M94.127075,28.9828738 C93.7340742,28.9904891 93.353479,29.1218212 93.0394154,29.358193 C92.6608474,29.6160684 92.3886912,30.0025302 92.2734579,30.4458525 C92.1916477,30.8603993 92.2920988,31.2901069 92.5492026,31.625427 C92.7627664,31.9321992 93.1032407,32.126354 93.4760111,32.1539376 C94.3682049,32.1101676 95.1269171,31.4882724 95.3449473,30.6220228 L95.3449473,30.6220228 C95.4144803,30.3714377 95.4144803,30.1066504 95.3449473,29.8560653 C95.1765252,29.448523 94.8078594,29.158235 94.3721813,29.0901079 C94.2940644,29.0466718 94.2119926,29.0107654 94.127075,28.9828738 Z" id="Shape" fill="#231F20"></path>
                            <path d="M98.2402664,52.6050015 C98.1949377,52.6157521 98.1477228,52.6157521 98.1023941,52.6050015 C97.9036333,52.5330194 97.8007838,52.313607 97.8726069,52.1147887 C97.9989206,51.8519583 98.1395575,51.596255 98.2938835,51.3488313 C99.2130324,49.7020228 102.024096,44.6926611 101.840266,42.9232994 C101.840266,42.8084057 101.710054,42.3871291 100.69133,41.6211717 C98.6998409,40.0892568 95.4292026,38.8177674 94.4640962,38.8177674 L94.4640962,38.8177674 C95.2821846,39.7034824 96.2146453,40.4762399 97.2368622,41.1156398 C97.4041356,41.2289248 97.4601023,41.4494998 97.367075,41.6288313 C97.2716151,41.8119414 97.05013,41.8891256 96.861543,41.8050015 C94.9849473,40.9930866 91.6913303,39.8594696 90.8104792,40.2730866 C90.7262239,40.319044 90.7109047,40.3573419 90.7032452,40.3956398 C90.5194154,41.1615972 93.5526069,42.425427 96.3866494,43.145427 C96.5955661,43.1947469 96.725546,43.4033989 96.6777133,43.6126611 C96.6317131,43.8216724 96.4287647,43.9569713 96.2181388,43.919044 C92.7636707,43.2986185 89.8989899,43.3139376 89.7381388,43.7352142 C89.5772877,44.1564908 92.2275005,45.0909589 94.9696281,45.4739376 C95.1818418,45.505521 95.3328389,45.696784 95.314309,45.9105334 C95.2940696,46.1235308 95.1062525,46.2806142 94.8930324,46.2628738 C93.0394154,46.1479802 91.2164367,46.2628738 90.8104792,46.5232994 C91.5228196,47.3735121 95.061543,48.6296823 97.167926,49.2424483 C97.3794393,49.3037871 97.5011798,49.5249775 97.4398409,49.7364908 C97.3785021,49.9480041 97.1573117,50.0697446 96.9457984,50.0084057 C96.3483516,49.8322355 91.101543,48.2773419 90.1594154,46.998193 C89.981211,46.7829951 89.9452698,46.4834856 90.0675005,46.2322355 C90.2436707,45.9028738 90.7798409,45.7037249 91.461543,45.5964908 C90.0521813,45.1675547 88.8572877,44.5471291 88.9568622,43.6892568 C88.9879144,43.4524719 89.1154199,43.2390388 89.3092026,43.0994696 C89.8530324,42.7011717 91.1168622,42.6398951 92.434309,42.7088313 C90.9483516,42.0577674 89.6921813,41.1769164 89.9372877,40.2501079 C90.007124,39.9667662 90.2014146,39.7302384 90.4657984,39.6067036 C91.2853728,39.2007462 93.0317558,39.6067036 94.5636707,40.1122355 C93.8513303,39.4688313 93.5372877,38.9556398 93.6138835,38.5803206 C93.6751006,38.2987549 93.9160549,38.0922227 94.2036707,38.0747887 C95.4368622,37.8603206 99.2896281,39.6067036 101.166224,41.0084057 C102.093032,41.705427 102.567926,42.3105334 102.629203,42.8620228 C102.813032,44.6543632 100.775586,48.5607462 98.9832452,51.7624483 C98.7840962,52.1147887 98.6462239,52.3598951 98.6155856,52.4364908 C98.5282772,52.554084 98.3861593,52.617892 98.2402664,52.6050015 L98.2402664,52.6050015 Z" id="Path" fill="#231F20"></path>
                            <path d="M17.0257984,80.3479802 C17.0257984,80.3479802 13.6555856,74.8713845 8.77643666,75.0398951 C5.41388347,75.1624483 0.396862191,77.6441504 0.396862191,77.6441504 L23.2300537,100.783725 C23.2300537,100.783725 30.5909047,106.405853 31.7628196,104.613512 C32.9347345,102.821172 33.6394154,101.028831 32.9500537,99.8645759 C32.260692,98.7003206 28.354309,96.6475547 28.354309,96.6475547 L27.8717558,91.9675547 C27.8717558,91.9675547 25.1372877,92.9403206 24.2640962,92.4501079 C23.3909047,91.9598951 17.0257984,80.3479802 17.0257984,80.3479802 Z" id="Path" fill="#FFFFFF"></path>
                            <path d="M31.0045218,105.387129 C28.7066494,105.387129 23.5900537,101.557342 22.9926069,101.097767 L0.113457936,77.9198951 C0.0235887493,77.8293961 -0.0164424954,77.7007243 0.00622389335,77.5752142 C0.0292798792,77.4504308 0.108339135,77.3431361 0.220691978,77.2841504 C0.427500489,77.1845759 5.35260687,74.7641504 8.76111751,74.6492568 L9.00622389,74.6492568 C13.9160111,74.6492568 17.2249473,79.919044 17.3628196,80.1488313 L17.3628196,80.1488313 C20.3653728,85.6407462 23.8734579,91.7147887 24.4632452,92.1437249 C24.9534579,92.41181 26.6692026,92.0058525 27.7338835,91.6228738 C27.8488398,91.5845307 27.9748285,91.5985295 28.0785643,91.6611717 C28.1815927,91.7245061 28.2494767,91.831989 28.2623941,91.9522355 L28.7296281,96.425427 C29.5875005,96.8850015 32.6283516,98.5701079 33.2794154,99.6960653 C34.1449473,101.174363 33.1032452,103.326704 32.0768622,104.866278 C31.887203,105.132906 31.5965028,105.310095 31.2726069,105.356491 C31.1841978,105.373789 31.094554,105.384034 31.0045218,105.387129 Z M1.07090474,77.759044 L23.5134579,100.500321 C25.0453728,101.702874 29.5951601,104.843299 31.1730324,104.582874 C31.2809046,104.57385 31.3804574,104.521308 31.4487771,104.437342 C32.7202664,102.522448 33.141543,100.982874 32.6283516,100.102023 C32.1151601,99.2211717 29.2581388,97.5896823 28.2011175,97.038193 C28.086095,96.9761747 28.0088109,96.8616797 27.994309,96.73181 L27.5577133,92.5420228 C26.6538835,92.825427 24.8998409,93.3079802 24.1032452,92.8407462 C23.1917558,92.3428738 18.2130324,83.3198951 16.7040962,80.585427 C16.5585643,80.3556398 13.3032452,75.3309589 8.80707496,75.4764908 C6.15686219,75.5301079 2.4036707,77.1462781 1.07090474,77.759044 Z" id="Shape" fill="#231F20"></path>
                            <path d="M35.6998409,154.737767 L27.7951601,154.737767 C27.6692809,154.737767 27.5529638,154.670612 27.4900242,154.561597 C27.4270847,154.452583 27.4270847,154.318271 27.4900242,154.209257 C27.5529638,154.100242 27.6692809,154.033087 27.7951601,154.033087 L35.6998409,154.033087 C35.8944331,154.033087 36.0521813,154.190835 36.0521813,154.385427 C36.0521813,154.580019 35.8944331,154.737767 35.6998409,154.737767 L35.6998409,154.737767 Z" id="Path" fill="#231F20"></path>
                            <path d="M62.5083516,154.737767 L54.6266494,154.737767 C54.4320572,154.737767 54.2743091,154.580019 54.2743091,154.385427 C54.2743091,154.190835 54.4320572,154.033087 54.6266494,154.033087 L62.5083516,154.033087 C62.7029438,154.033087 62.8606919,154.190835 62.8606919,154.385427 C62.8606919,154.580019 62.7029438,154.737767 62.5083516,154.737767 L62.5083516,154.737767 Z" id="Path" fill="#231F20"></path>
                            <circle id="Oval" fill="#F29130" cx="49.1117558" cy="4.7173419" r="1.99914894"></circle>
                        </g>
                    </g>
                </g>
            </g>
        </g>
    </g>
</svg>