<svg width="43" height="40" viewBox="0 0 43 40" fill="none" xmlns="http://www.w3.org/2000/svg">
<path d="M42.9997 0.616114C42.9997 0.392286 42.8797 0.186149 42.6862 0.0774478C42.4928 -0.0310776 42.2563 -0.0252685 42.0684 0.0931148C37.0154 3.27441 24.8041 3.84503 18.7583 0.0915305C18.5703 -0.0250924 18.3346 -0.0300214 18.1419 0.0789441C17.9494 0.187822 17.8301 0.393518 17.8301 0.616554L17.8304 10.4945C12.5916 12.9466 5.51415 14.3282 0.782847 12.9067C0.571503 12.843 0.342489 12.9002 0.184329 13.0557C0.0262566 13.2114 -0.0363283 13.4412 0.0207728 13.6567L3.82418 28.0083C4.87437 31.9714 7.1135 35.3635 10.1289 37.5599C12.3388 39.1695 14.7732 40 17.1895 40C18.1115 40 19.0308 39.8791 19.9339 39.6344C23.2037 38.7484 25.8549 36.3497 27.3993 32.8803C27.7149 32.1712 27.9755 31.4343 28.1825 30.6769C28.9171 30.838 29.6656 30.9207 30.4156 30.9207C33.8008 30.9206 36.9757 29.2975 39.3554 26.3504C41.7057 23.4396 43.0001 19.5771 43 15.4742L42.9997 0.616114ZM26.2882 32.3744C24.8969 35.5001 22.5283 37.6557 19.6186 38.444C16.7089 39.2326 13.5917 38.5633 10.8413 36.5601C8.05314 34.5293 5.97914 31.379 5.00137 27.6895L1.46615 14.3497C4.70498 15.0344 8.95936 14.7297 13.3468 13.4771C17.4819 12.2965 21.152 10.4369 23.4237 8.39984L26.9589 21.7397C27.9366 25.4293 27.6985 29.206 26.2882 32.3744V32.3744ZM28.0971 21.2744L27.675 19.6815C28.5495 19.0708 29.4696 18.7609 30.4151 18.7609C32.0838 18.7609 33.6746 19.7259 34.9841 21.5072C33.4932 21.2987 31.9618 21.1933 30.4151 21.1933C29.6413 21.1932 28.8642 21.2215 28.0971 21.2744ZM30.4157 29.6883C29.7598 29.6883 29.1051 29.617 28.4622 29.4776C28.8941 27.2397 28.8722 24.8574 28.3865 22.489C29.0587 22.447 29.7383 22.4256 30.4152 22.4256C32.367 22.4256 34.2918 22.5995 36.1359 22.9423C36.1728 22.9491 36.2097 22.9524 36.2462 22.9524C36.4417 22.9524 36.6283 22.8571 36.7437 22.6919C36.8808 22.4958 36.8926 22.2371 36.7742 22.0291C35.1228 19.1269 32.8645 17.5286 30.4152 17.5286C29.3484 17.5286 28.3187 17.8323 27.3436 18.4307L25.5924 11.8228C26.689 11.7731 27.6804 11.1472 28.2031 10.1617C28.3621 9.8619 28.2506 9.48844 27.954 9.32754C27.6573 9.16665 27.288 9.27948 27.1291 9.57936C26.7968 10.206 26.154 10.5953 25.4518 10.5953C25.3889 10.5953 25.3265 10.5912 25.2644 10.585L24.3326 7.0691C24.2754 6.85293 24.1067 6.68517 23.8919 6.63087C23.6773 6.57674 23.4503 6.64425 23.2991 6.80769C22.2878 7.90078 20.8072 8.95373 19.049 9.88751L19.0488 1.66414C22.0019 3.17319 26.1898 3.99387 30.7479 3.93049C35.0442 3.8724 39.0653 3.03668 41.781 1.66361L41.7815 15.4741C41.7816 23.3117 36.6829 29.6882 30.4157 29.6883V29.6883ZM38.1299 10.1617C37.585 11.1893 36.5307 11.8277 35.3786 11.8277C34.2264 11.8277 33.1722 11.1893 32.6273 10.1617C32.4682 9.8619 32.5797 9.48844 32.8763 9.32754C33.1729 9.16682 33.5422 9.27948 33.7012 9.57936C34.0336 10.206 34.6763 10.5953 35.3786 10.5953C36.0808 10.5953 36.7236 10.206 37.0559 9.57936C37.2149 9.27948 37.5844 9.16673 37.8808 9.32754C38.1774 9.48844 38.2889 9.8619 38.1299 10.1617V10.1617ZM22.9755 26.3897C22.793 26.2362 22.5389 26.2039 22.3244 26.307C20.6312 27.1207 18.8166 27.7923 16.9309 28.3033C15.0455 28.8142 13.1418 29.1499 11.2728 29.3014C11.0362 29.3206 10.832 29.477 10.7499 29.7023C10.6677 29.9276 10.7224 30.1806 10.89 30.3506C12.7525 32.2394 14.7752 33.2282 16.717 33.2282C17.2127 33.2282 17.7032 33.1638 18.1842 33.0334C20.5501 32.3924 22.3224 30.2575 23.1748 27.022C23.2359 26.79 23.1581 26.5432 22.9755 26.3897V26.3897ZM17.8689 31.8431C16.2571 32.2796 14.4735 31.764 12.7527 30.386C14.2461 30.1972 15.7522 29.8983 17.2463 29.4935C18.7406 29.0885 20.1927 28.586 21.5792 27.9945C20.7703 30.0579 19.4808 31.4063 17.8689 31.8431ZM11.7893 21.7384C11.3077 21.2201 10.5873 21.0122 9.90902 21.1961C9.23068 21.3798 8.70946 21.9241 8.54886 22.6164C8.48297 22.9004 8.23263 23.092 7.95618 23.092C7.91013 23.092 7.8633 23.0866 7.81647 23.0754C7.48884 22.9977 7.28559 22.6662 7.36245 22.3349C7.62584 21.1998 8.48079 20.3073 9.59357 20.0057C10.7066 19.7044 11.8881 20.0449 12.6776 20.8949C12.9079 21.1428 12.8959 21.5328 12.6505 21.7658C12.4053 21.9986 12.0197 21.9863 11.7893 21.7384ZM16.9511 19.7369C17.2145 18.6018 18.0693 17.7093 19.1822 17.4077C20.2951 17.1064 21.4768 17.4469 22.2662 18.2969C22.4965 18.5449 22.4844 18.9348 22.2391 19.1678C21.9937 19.4007 21.6081 19.3884 21.3778 19.1404C20.8964 18.6221 20.1761 18.4139 19.4976 18.5981C18.8192 18.7818 18.298 19.326 18.1374 20.0184C18.0715 20.3024 17.8212 20.494 17.5447 20.494C17.4987 20.494 17.4519 20.4886 17.405 20.4775C17.0775 20.3998 16.8741 20.0682 16.9511 19.7369V19.7369Z" fill="#4B7FDB"/>
</svg>
