<svg width="40" height="40" viewBox="0 0 40 40" fill="none" xmlns="http://www.w3.org/2000/svg">
<path d="M3.2815 14.0405C3.30227 14.0427 3.32315 14.0439 3.34404 14.0439C3.47855 14.0437 3.60829 13.994 3.70848 13.9043C3.80867 13.8145 3.87229 13.691 3.88721 13.5573C4.13143 11.3784 4.27808 9.10006 4.32343 6.78575C4.32625 6.64061 4.2713 6.5003 4.17066 6.39568C4.07003 6.29106 3.93196 6.23071 3.78683 6.22789C3.64169 6.22507 3.50138 6.28002 3.39676 6.38065C3.29214 6.48128 3.23179 6.61935 3.22897 6.76448C3.18425 9.04503 3.04134 11.2899 2.79931 13.4357C2.78314 13.5798 2.82484 13.7245 2.91525 13.8379C3.00567 13.9513 3.1374 14.0241 3.2815 14.0405V14.0405Z" fill="#4B7FDB"/>
<path d="M6.04498 25.0099C5.97577 25.029 5.91101 25.0617 5.85441 25.1059C5.79781 25.1502 5.75047 25.2051 5.71509 25.2677C5.67972 25.3302 5.65701 25.3991 5.64825 25.4705C5.63949 25.5418 5.64486 25.6142 5.66405 25.6834C6.42352 28.4466 6.9483 31.2691 7.2328 34.1208C7.24634 34.2556 7.30942 34.3807 7.40982 34.4716C7.51021 34.5626 7.64078 34.6131 7.77623 34.6133C7.79467 34.6133 7.81311 34.6133 7.83186 34.6105C7.97609 34.5958 8.10862 34.5245 8.20033 34.4122C8.29203 34.2998 8.33541 34.1556 8.32092 34.0113C8.03066 31.0979 7.49469 28.2143 6.71873 25.3913C6.69963 25.322 6.66702 25.2571 6.62279 25.2003C6.57856 25.1436 6.52358 25.0961 6.46099 25.0607C6.3984 25.0252 6.32943 25.0025 6.25805 24.9938C6.18666 24.9851 6.11426 24.9905 6.04498 25.0099Z" fill="#4B7FDB"/>
<path d="M36.6584 14.0439C36.6793 14.0438 36.7002 14.0427 36.721 14.0404C36.8652 14.0242 36.9971 13.9514 37.0876 13.838C37.1782 13.7246 37.22 13.5799 37.2038 13.4357C36.9633 11.2899 36.8189 9.04499 36.7741 6.76445C36.7739 6.69219 36.7592 6.62072 36.7308 6.55428C36.7024 6.48785 36.6608 6.42782 36.6087 6.37777C36.5566 6.32772 36.4949 6.28868 36.4274 6.26298C36.3599 6.23728 36.2879 6.22544 36.2157 6.22817C36.1438 6.22951 36.0729 6.245 36.0071 6.27375C35.9412 6.3025 35.8816 6.34396 35.8318 6.39574C35.782 6.44752 35.7428 6.50861 35.7166 6.57552C35.6904 6.64244 35.6777 6.71387 35.6791 6.78572C35.7244 9.09972 35.8711 11.3784 36.1153 13.5573C36.1302 13.691 36.1938 13.8145 36.294 13.9042C36.3942 13.994 36.5239 14.0437 36.6584 14.0439V14.0439Z" fill="#4B7FDB"/>
<path d="M33.9551 25.0101C33.8153 24.9716 33.6659 24.9902 33.5398 25.0617C33.4136 25.1332 33.3209 25.2518 33.2819 25.3916C32.5058 28.2145 31.9696 31.0981 31.6791 34.0115C31.6646 34.1559 31.708 34.3 31.7997 34.4124C31.8914 34.5247 32.024 34.5961 32.1682 34.6107C32.1869 34.6125 32.2054 34.6135 32.2238 34.6135C32.3593 34.6133 32.4898 34.5628 32.5902 34.4719C32.6906 34.3809 32.7537 34.2558 32.7673 34.121C33.0518 31.2693 33.5765 28.4468 34.336 25.6836C34.3552 25.6144 34.3606 25.542 34.3518 25.4707C34.343 25.3993 34.3203 25.3304 34.285 25.2679C34.2496 25.2053 34.2022 25.1504 34.1456 25.1061C34.089 25.0619 34.0243 25.0293 33.9551 25.0101V25.0101Z" fill="#4B7FDB"/>
<path d="M39.995 0.514709C39.9851 0.376763 39.924 0.247509 39.8237 0.152291C39.7235 0.0570736 39.5913 0.00275999 39.4531 0H0.546875C0.403079 0.00394436 0.266258 0.062865 0.164541 0.164648C0.0628242 0.266431 0.0039418 0.403341 0 0.54723L0 39.4528C8.27947e-05 39.5979 0.0577264 39.737 0.160267 39.8396C0.262808 39.9422 0.40186 39.9999 0.546875 40H11.2694C11.4144 40 11.5535 39.9423 11.6561 39.8397C11.7586 39.7371 11.8163 39.5979 11.8163 39.4528C11.8076 33.6334 10.4828 27.8914 7.94125 22.6572H8.14656C8.78398 22.6579 9.39711 22.4126 9.85836 21.9724C10.3196 21.5321 10.5934 20.9309 10.6229 20.2937C10.6523 19.6566 10.4351 19.0326 10.0164 18.5517C9.59766 18.0708 9.00976 17.7699 8.375 17.7118C10.2752 14.5217 11.4222 10.9395 11.7288 7.23844C14.4311 7.93037 17.2106 8.27472 20 8.26317C22.7894 8.27472 25.5689 7.93037 28.2713 7.23844C28.5778 10.9395 29.7248 14.5217 31.625 17.7118C30.9904 17.7699 30.4026 18.0707 29.9839 18.5514C29.5652 19.0322 29.3479 19.6559 29.3771 20.293C29.4063 20.93 29.6799 21.5312 30.1408 21.9716C30.6017 22.4119 31.2146 22.6575 31.8519 22.6572H32.0569C29.5155 27.8915 28.1907 33.6334 28.1819 39.4528C28.182 39.5979 28.2396 39.737 28.3421 39.8396C28.4447 39.9422 28.5837 39.9999 28.7287 40H39.4531C39.5981 39.9999 39.7372 39.9422 39.8397 39.8396C39.9423 39.737 39.9999 39.5979 40 39.4528V0.54723C40 0.536911 39.9956 0.525966 39.995 0.514709ZM10.7187 38.9055H1.09375V22.6572H2.36219C2.77719 25.039 3.10781 27.5438 3.33844 30.1186C3.35016 30.255 3.41253 30.382 3.51325 30.4746C3.61397 30.5672 3.74571 30.6187 3.8825 30.6189C3.89906 30.6189 3.91531 30.6189 3.93219 30.6167C4.07662 30.6036 4.20994 30.5337 4.30288 30.4223C4.39581 30.3109 4.44074 30.1671 4.42781 30.0226C4.20062 27.4844 3.87625 25.0143 3.47094 22.6584H6.72531C9.26301 27.7038 10.6282 33.2579 10.7187 38.9055V38.9055ZM9.53125 20.1787C9.53084 20.5456 9.38498 20.8974 9.12569 21.1569C8.86639 21.4164 8.51483 21.5623 8.14812 21.5627H1.09375V18.795H8.1475C8.51426 18.7952 8.86593 18.9411 9.12535 19.2005C9.38478 19.4599 9.53075 19.8117 9.53125 20.1787V20.1787ZM7.1 17.7005H5.69531C6.41471 15.7953 6.95547 13.8272 7.31062 11.8217C7.32505 11.7503 7.32507 11.6767 7.3107 11.6053C7.29633 11.5339 7.26785 11.4661 7.22694 11.4058C7.18602 11.3455 7.13349 11.2941 7.07242 11.2544C7.01136 11.2147 6.94299 11.1876 6.87133 11.1747C6.79967 11.1618 6.72616 11.1634 6.6551 11.1793C6.58405 11.1952 6.5169 11.2252 6.45757 11.2674C6.39824 11.3097 6.34794 11.3633 6.30961 11.4253C6.27128 11.4872 6.24571 11.5562 6.23438 11.6282C5.86705 13.7052 5.2923 15.74 4.51875 17.7021H1.09375V1.829C2.5625 3.1189 5.73156 5.46479 10.6562 6.94044C10.374 10.7654 9.15242 14.4614 7.1 17.7005V17.7005ZM20 7.16871C10.2153 7.16871 4.17219 2.98913 1.9375 1.09446H38.0656C33.8787 4.35188 29.2137 6.93794 20 7.16871ZM38.9062 38.9055H29.2812C29.3716 33.2574 30.7369 27.7029 33.275 22.6572H36.5291C36.1228 25.0131 35.7994 27.4831 35.5722 30.0213C35.5593 30.1659 35.6042 30.3096 35.6971 30.421C35.7901 30.5324 35.9234 30.6024 36.0678 30.6155C36.0847 30.6155 36.1009 30.6177 36.1175 30.6177C36.254 30.6175 36.3855 30.5663 36.4862 30.4741C36.5868 30.3818 36.6494 30.2553 36.6616 30.1192C36.8922 27.5438 37.2241 25.039 37.6378 22.6572H38.9062V38.9055ZM38.9062 21.5627H31.8525C31.6691 21.5655 31.4871 21.5317 31.3169 21.4634C31.1466 21.3951 30.9917 21.2936 30.8611 21.1648C30.7304 21.0361 30.6267 20.8826 30.5559 20.7133C30.4851 20.544 30.4486 20.3624 30.4486 20.1789C30.4486 19.9954 30.4851 19.8137 30.5559 19.6444C30.6267 19.4752 30.7304 19.3217 30.8611 19.1929C30.9917 19.0641 31.1466 18.9626 31.3169 18.8943C31.4871 18.826 31.6691 18.7922 31.8525 18.795H38.9062V21.5627ZM38.9062 17.7005H35.4813C34.7077 15.7384 34.1329 13.7036 33.7656 11.6266C33.7543 11.5546 33.7287 11.4857 33.6904 11.4237C33.6521 11.3618 33.6018 11.3081 33.5424 11.2659C33.4831 11.2236 33.4159 11.1937 33.3449 11.1778C33.2738 11.1618 33.2003 11.1603 33.1287 11.1732C33.057 11.1861 32.9886 11.2131 32.9276 11.2528C32.8665 11.2925 32.814 11.344 32.7731 11.4042C32.7321 11.4645 32.7037 11.5323 32.6893 11.6038C32.6749 11.6752 32.675 11.7488 32.6894 11.8202C33.0444 13.8262 33.5852 15.7948 34.3047 17.7005H32.8984C30.8466 14.4612 29.6256 10.7652 29.3438 6.94044C34.2688 5.46479 37.4375 3.1189 38.9062 1.829V17.7005Z" fill="#4B7FDB"/>
</svg>
