<svg width="30" height="40" viewBox="0 0 30 40" fill="none" xmlns="http://www.w3.org/2000/svg">
<path d="M29.8375 22.477L29.6499 22.051C29.4605 21.6148 29.1154 21.2647 28.6818 21.0689C28.2482 20.8731 27.7571 20.8455 27.3043 20.9916C27.2474 21.0098 27.1827 21.0295 27.1223 21.0485V16.6148H28.4859C28.631 16.6148 28.7702 16.5571 28.8729 16.4546C28.9755 16.352 29.0332 16.2129 29.0332 16.0679V3.41158C29.0332 3.26653 28.9755 3.12743 28.8729 3.02487C28.7702 2.92232 28.631 2.8647 28.4859 2.8647H27.1223V0.546877C27.1222 0.401862 27.0645 0.262809 26.9619 0.160268C26.8593 0.0577266 26.7201 8.2795e-05 26.575 0H23.3926C23.2474 0 23.1082 0.0576172 23.0056 0.160177C22.9029 0.262736 22.8453 0.401836 22.8453 0.546877V2.8647H7.15633V0.546877C7.15625 0.401862 7.09856 0.262809 6.99594 0.160268C6.89332 0.0577266 6.75416 8.2795e-05 6.60904 0H3.42503C3.2799 8.2795e-05 3.14074 0.0577266 3.03812 0.160268C2.9355 0.262809 2.87781 0.401862 2.87773 0.546877V2.8647H2.45209C2.05826 2.86519 1.6807 3.02174 1.40222 3.30001C1.12374 3.57828 0.96707 3.95555 0.966573 4.34908V15.1304C0.96707 15.5239 1.12374 15.9012 1.40222 16.1794C1.6807 16.4577 2.05826 16.6143 2.45209 16.6148H2.87773V21.0485C2.81737 21.0298 2.75263 21.0101 2.69572 20.9916C2.24291 20.8455 1.75188 20.8731 1.31828 21.0689C0.884681 21.2647 0.539565 21.6148 0.350161 22.051L0.162517 22.4766C0.0545464 22.722 -0.00081066 22.9873 8.97032e-06 23.2554C0.000828601 23.5234 0.0578067 23.7884 0.167276 24.0331C0.276746 24.2778 0.436281 24.497 0.635616 24.6764C0.83495 24.8558 1.06967 24.9915 1.32466 25.0748C1.55953 25.1513 1.8288 25.2342 2.11902 25.3195L11.0825 31.2495L3.84629 36.0367C3.37298 36.3552 3.04484 36.8477 2.93336 37.4069C2.82188 37.9661 2.9361 38.5467 3.25113 39.0221C3.56616 39.4975 4.05646 39.8293 4.6152 39.945C5.17394 40.0608 5.75583 39.9512 6.23406 39.6402L15.0008 33.8408L23.7679 39.6411C24.2462 39.9574 24.8307 40.0709 25.3928 39.9566C25.9548 39.8423 26.4485 39.5095 26.765 39.0316C27.0816 38.5536 27.1951 37.9695 27.0807 37.4079C26.9663 36.8462 26.6333 36.353 26.155 36.0367L18.9176 31.2495L27.8804 25.3198C28.1709 25.2342 28.4402 25.1513 28.6751 25.0748C28.9301 24.9916 29.1648 24.8559 29.3642 24.6765C29.5636 24.4972 29.7231 24.2781 29.8326 24.0334C29.9421 23.7887 29.9991 23.5237 30 23.2557C30.0008 22.9876 29.9455 22.7224 29.8375 22.477V22.477ZM26.0093 37.6267C26.0513 37.8335 26.031 38.048 25.951 38.2433C25.871 38.4385 25.7349 38.6057 25.5599 38.7237C25.3848 38.8417 25.1787 38.9051 24.9676 38.9061C24.7565 38.9071 24.5498 38.8456 24.3736 38.7292L15.9922 33.1851L17.9262 31.9054L25.5508 36.9495C25.6683 37.0264 25.7694 37.1258 25.8481 37.2421C25.9268 37.3583 25.9816 37.4891 26.0093 37.6267V37.6267ZM26.0312 21.366C25.3691 21.5432 24.6695 21.7066 23.9414 21.8538V16.6148H26.0312V21.366ZM23.9399 1.09375H26.0296V2.8647H23.9399V1.09375ZM3.97232 1.09375H6.06174V2.8647H3.97232V1.09375ZM2.06116 15.1304V4.34908C2.06133 4.24553 2.10257 4.14627 2.17585 4.07305C2.24912 3.99983 2.34846 3.95862 2.45209 3.95845H27.9404V15.521H2.45209C2.34846 15.5208 2.24912 15.4796 2.17585 15.4064C2.10257 15.3332 2.06133 15.2339 2.06116 15.1304V15.1304ZM6.06174 16.6148V21.8538C5.33337 21.7066 4.63408 21.5432 3.97232 21.366V16.6148H6.06174ZM7.15633 16.6148H22.8453V22.0607C20.2538 22.5002 17.6294 22.717 15.0008 22.7085C12.3723 22.717 9.74783 22.5003 7.15633 22.0607V16.6148ZM5.26707 26.0892C6.90036 26.4133 8.54981 26.65 10.2084 26.7982L14.0107 29.3139L12.0764 30.5936L5.26707 26.0892ZM15.0008 28.6582L12.4166 26.9485C13.2426 26.9876 14.1023 27.011 15.0008 27.011C15.8993 27.011 16.7593 26.9879 17.585 26.9485L15.0008 28.6582ZM24.7345 26.0892L5.62985 38.7292C5.39346 38.8854 5.10464 38.9414 4.82693 38.8849C4.54922 38.8283 4.30537 38.6639 4.14902 38.4276C3.99267 38.1914 3.93663 37.9028 3.99323 37.6253C4.04983 37.3478 4.21443 37.1042 4.45082 36.948L19.7945 26.7982C21.4525 26.649 23.1015 26.4123 24.7345 26.0892V26.0892ZM28.8314 23.5892C28.7851 23.6944 28.7169 23.7888 28.6315 23.8659C28.5461 23.943 28.4453 24.0012 28.3358 24.0367C24.4062 25.3054 19.6031 25.9195 15.0008 25.917C10.1955 25.8567 6.40482 25.4817 1.66555 24.0348C1.55769 23.9962 1.45877 23.9362 1.37473 23.8584C1.29069 23.7806 1.22327 23.6866 1.17652 23.5821C1.12977 23.4775 1.10467 23.3647 1.10272 23.2502C1.10077 23.1357 1.12201 23.0221 1.16516 22.916L1.35281 22.4904C1.41664 22.3431 1.5221 22.2176 1.65625 22.1293C1.7904 22.041 1.94743 21.9937 2.10808 21.9932C5.8716 23.0248 9.02527 23.7532 15.0008 23.8023C20.8756 23.7245 23.9477 23.1173 27.6415 22.0329C27.8362 21.9704 28.0472 21.9826 28.2335 22.0672C28.4197 22.1517 28.5678 22.3024 28.6488 22.4901L28.8364 22.916C28.8834 23.022 28.9074 23.1368 28.9067 23.2527C28.9061 23.3686 28.8808 23.4831 28.8327 23.5885L28.8314 23.5892Z" fill="#4B7FDB"/>
<path d="M11.9076 11.1688L11.8363 13.7491C11.8901 13.9516 11.9348 14.3948 12.5668 14.2804L15.0009 13.4148L17.4349 14.2795C17.5187 14.3049 17.6073 14.3106 17.6936 14.296C17.78 14.2815 17.8617 14.2471 17.9325 14.1956C18.0033 14.1441 18.0612 14.0769 18.1015 13.9993C18.1419 13.9216 18.1637 13.8357 18.1652 13.7482L18.0945 11.1679L19.6695 9.12225C19.7195 9.05055 19.7523 8.96823 19.7652 8.88176C19.778 8.79528 19.7706 8.707 19.7436 8.62385C19.7166 8.5407 19.6706 8.46495 19.6094 8.40253C19.5481 8.34011 19.4732 8.29274 19.3905 8.26413L16.9127 7.53662L15.4522 5.40724C15.3992 5.33786 15.3309 5.28163 15.2526 5.24292C15.1744 5.20422 15.0882 5.18408 15.0009 5.18408C14.9136 5.18408 14.8274 5.20422 14.7491 5.24292C14.6709 5.28163 14.6026 5.33786 14.5496 5.40724L13.0891 7.53662L10.6113 8.26631C10.5286 8.29493 10.4537 8.3423 10.3924 8.40472C10.3311 8.46713 10.2852 8.54289 10.2582 8.62604C10.2311 8.70919 10.2238 8.79747 10.2366 8.88394C10.2495 8.97042 10.2822 9.05274 10.3323 9.12444L11.9076 11.1688ZM13.5854 8.52944C13.706 8.49376 13.8107 8.41774 13.8819 8.31413L15.0009 6.68256L16.1199 8.31413C16.1911 8.41774 16.2957 8.49376 16.4164 8.52944L18.315 9.08882L17.1081 10.6563C17.0312 10.7559 16.9912 10.879 16.9949 11.0048L17.0493 12.9816L15.1842 12.3179C15.0656 12.2758 14.9362 12.2758 14.8176 12.3179L12.9528 12.9807L13.0072 11.0038C13.0106 10.878 12.9705 10.7548 12.8936 10.6551L11.6858 9.08882L13.5854 8.52944Z" fill="#4B7FDB"/>
</svg>
