<svg width="34" height="40" viewBox="0 0 34 40" fill="none" xmlns="http://www.w3.org/2000/svg">
<path d="M11.6466 13.8464H27.47C27.7975 13.8464 28.0629 13.5841 28.0629 13.2605C28.0629 12.9369 27.7975 12.6746 27.47 12.6746H11.6466C11.3192 12.6746 11.0537 12.9369 11.0537 13.2605C11.0537 13.5841 11.3192 13.8464 11.6466 13.8464V13.8464Z" fill="#4B7FDB"/>
<path d="M11.6466 18.1892H27.47C27.7975 18.1892 28.0629 17.9269 28.0629 17.6033C28.0629 17.2797 27.7975 17.0173 27.47 17.0173H11.6466C11.3192 17.0173 11.0537 17.2797 11.0537 17.6033C11.0537 17.9269 11.3192 18.1892 11.6466 18.1892V18.1892Z" fill="#4B7FDB"/>
<path d="M11.6466 22.532H27.47C27.7975 22.532 28.0629 22.2696 28.0629 21.946C28.0629 21.6225 27.7975 21.3601 27.47 21.3601H11.6466C11.3192 21.3601 11.0537 21.6225 11.0537 21.946C11.0537 22.2696 11.3192 22.532 11.6466 22.532V22.532Z" fill="#4B7FDB"/>
<path d="M33.285 7.50172C33.2799 7.35484 33.2178 7.21125 33.1124 7.10711L26.0943 0.171641C25.9846 0.0632031 25.8301 0 25.675 0H8.15507C6.87287 0 5.82981 1.03086 5.82981 2.29797V2.73922H5.38331C4.18435 2.73922 3.19466 3.64063 3.07117 4.79359H2.61147C1.32927 4.79359 0.286133 5.82445 0.286133 7.09156V26.7877C0.286133 27.1113 0.551601 27.3737 0.879048 27.3737C1.2065 27.3737 1.47196 27.1113 1.47196 26.7877V7.09148C1.47196 6.47055 1.98314 5.96539 2.61147 5.96539H3.05797V35.6477C3.05797 36.9148 4.10111 37.9456 5.38331 37.9456H20.4666C20.794 37.9456 21.0595 37.6833 21.0595 37.3597C21.0595 37.0361 20.794 36.7738 20.4666 36.7738H5.38331C4.75497 36.7738 4.2438 36.2686 4.2438 35.6477V5.03711C4.2438 4.41617 4.75497 3.91102 5.38331 3.91102H5.82981V7.10273C5.82981 7.42633 6.09528 7.68867 6.42273 7.68867C6.75017 7.68867 7.01564 7.42633 7.01564 7.10273V2.29797C7.01564 1.67703 7.52681 1.17188 8.15507 1.17188H25.0821V5.80969C25.0821 7.07664 26.1251 8.10734 27.4071 8.10734H32.1001V32.9084C32.1001 33.5294 31.589 34.0345 30.9606 34.0345H8.15507C7.52673 34.0345 7.01564 33.5294 7.01564 32.9084V9.65633C7.01564 9.33273 6.75017 9.07039 6.42273 9.07039C6.09528 9.07039 5.82981 9.33273 5.82981 9.65633V32.9084C5.82981 34.1755 6.87295 35.2064 8.15507 35.2064H29.3284V35.6477C29.3284 36.2686 28.8172 36.7738 28.1889 36.7738H23.0505C22.7231 36.7738 22.4576 37.0361 22.4576 37.3597C22.4576 37.6833 22.7231 37.9456 23.0505 37.9456H26.529C26.4159 38.4498 25.9607 38.8281 25.417 38.8281H2.61147C1.98314 38.8281 1.47196 38.323 1.47196 37.702V29.3412C1.47196 29.0177 1.2065 28.7553 0.879048 28.7553C0.551601 28.7553 0.286133 29.0177 0.286133 29.3412V37.702C0.286133 38.9691 1.32927 40 2.61147 40H25.4171C26.6161 40 27.6058 39.0986 27.7293 37.9456H28.189C29.4712 37.9456 30.5143 36.9148 30.5143 35.6477V35.2064H30.9608C32.243 35.2064 33.2861 34.1755 33.2861 32.9084V7.52141C33.2861 7.51484 33.2853 7.50828 33.285 7.50172V7.50172ZM27.4072 6.93547C26.779 6.93547 26.268 6.43047 26.268 5.80969V2.00047L31.2618 6.93547H27.4072Z" fill="#4B7FDB"/>
</svg>
