<svg width="250" height="300" viewBox="0 0 250 300" fill="none" xmlns="http://www.w3.org/2000/svg">
<path d="M175.876 4.35814C105.122 -16.0355 60.1648 42.3062 -76.5269 32.5552C-233.434 21.4141 -195.496 180.878 -61.5323 250.702C82.5586 325.857 224.196 328.532 247.807 163.081C247.676 163.029 269.867 31.4535 175.876 4.35814Z" fill="#FCBDBD"/>
</svg>
