<svg width="141" height="95" viewBox="0 0 141 95" fill="none" xmlns="http://www.w3.org/2000/svg">
<path opacity="0.6" d="M58.1037 9.17274C56.9493 8.33739 55.6408 7.73919 54.2537 7.41275C49.8779 6.17405 45.2906 5.86867 40.7892 6.5164C36.2878 7.16413 31.9728 8.75052 28.1237 11.1727C21.1937 15.4327 13.2437 21.3727 7.20372 31.3227C2.95816 38.4625 0.510629 46.5269 0.0716596 54.822C-0.367309 63.1171 1.21543 71.3947 4.68372 78.9427C9.01372 88.1327 18.6837 96.7227 28.3737 93.6027C35.6437 91.2527 39.3737 83.5027 43.1237 76.8327C46.8737 70.1627 52.9137 63.0827 60.5437 64.0227C69.2737 65.1127 72.8937 75.4227 78.3437 82.3227C86.3437 92.4127 100.994 96.0527 113.224 92.1027C125.454 88.1527 134.924 77.4027 138.684 65.1027C142.444 52.8027 140.884 39.2427 135.774 27.4527C131.274 17.0927 123.774 7.64274 113.504 2.92274C101.504 -2.59726 85.5837 -0.527262 78.0137 11.0927C76.8931 12.8639 75.3221 14.3056 73.4613 15.2702C71.6006 16.2348 69.517 16.6878 67.4237 16.5827C62.4237 16.2327 61.5237 12.3627 58.1537 9.20274" fill="#00D49E"/>
</svg>
