<svg width="368" height="683" viewBox="0 0 368 683" fill="none" xmlns="http://www.w3.org/2000/svg">
<path opacity="0.07" d="M336.874 217.328C277.124 129.613 172.446 115.59 109.033 124.712C45.62 133.833 -24.7136 129.656 -78.9569 58.753C-133.2 -12.1497 -231.026 -18.7645 -284.666 38.2883C-342.684 100.044 -421.645 250.092 -316.321 424.575C-249.211 535.752 -146.679 608.679 -57.7302 646.585C31.2189 684.491 105.482 698.522 149.78 660.702C194.078 622.882 168.301 579.739 159.26 560.325C150.22 540.911 136.267 483.747 238.083 463.273C359.325 438.89 403.709 315.413 336.874 217.328Z" fill="#4B7FDB"/>
</svg>
