<svg width="442" height="549" viewBox="0 0 442 549" fill="none" xmlns="http://www.w3.org/2000/svg">
<path opacity="0.07" d="M126.859 300.729C228.279 285.199 300.859 304.358 341.099 371.448C386.179 446.529 402.269 511.138 489.429 540.089C598.899 576.458 736.489 499.008 779.519 343.969C800.769 267.428 805.519 155.868 728.269 67.1785C671.579 2.04848 566.329 -16.6015 483.929 17.8585C423.189 43.2485 345.679 69.5385 266.929 27.8585C188.179 -13.8215 94.7093 -12.9815 32.6393 59.6085C-36.0407 139.899 7.56929 319.009 126.859 300.729Z" fill="#4B7FDB"/>
</svg>
