<svg width="22" height="16" viewBox="0 0 22 16" fill="none" xmlns="http://www.w3.org/2000/svg">
<path d="M21.6778 0.319082C21.2483 -0.106361 20.5518 -0.106361 20.1222 0.319082L6.94351 13.3703L1.87784 8.35369C1.44828 7.92824 0.751845 7.92829 0.322201 8.35369C-0.1074 8.77909 -0.1074 9.46878 0.322201 9.89422L6.16569 15.6811C6.59512 16.1065 7.29207 16.1062 7.72132 15.6811L21.6778 1.85966C22.1074 1.43426 22.1074 0.744525 21.6778 0.319082Z" fill="black"/>
</svg>
