<svg width="14" height="18" viewBox="0 0 14 18" fill="none" xmlns="http://www.w3.org/2000/svg">
<path d="M7 1C3.69158 1 1 3.63177 1 6.86666C1 11.8469 6.40501 16.6607 6.63512 16.863C6.73899 16.9544 6.86949 17 7 17C7.13051 17 7.26101 16.9544 7.36488 16.863C7.59499 16.6607 13 11.8469 13 6.86666C13 3.63177 10.3084 1 7 1Z" fill="#FCEC45" stroke="white" stroke-width="0.2"/>
<path d="M7.00002 3.66666C5.19533 3.66666 3.72729 5.10208 3.72729 6.86666C3.72729 8.63125 5.19533 10.0667 7.00002 10.0667C8.80471 10.0667 10.2728 8.63125 10.2728 6.86666C10.2728 5.10208 8.80471 3.66666 7.00002 3.66666ZM7.00002 9C5.79672 9 4.8182 8.04297 4.8182 6.86666C4.8182 5.69036 5.79672 4.73333 7.00002 4.73333C8.20332 4.73333 9.18185 5.69036 9.18185 6.86667C9.18185 8.04297 8.20332 9 7.00002 9Z" fill="white"/>
</svg>
