<svg width="207" height="667" viewBox="0 0 207 667" fill="none" xmlns="http://www.w3.org/2000/svg">
<path d="M39.7929 88.5027C28.5786 114.46 31.0257 144.101 35.1836 172.055C39.3415 200.009 45.0437 228.533 39.6979 256.297C33.568 288.054 13.729 315.2 0.447571 344.699C-12.8339 374.198 -18.5599 411.588 1.61176 436.832C35.7538 479.476 53.1542 457.489 83.2097 503.128C100.72 529.703 93.0223 570.493 117.874 590.388C134.506 603.795 144.291 601.156 165.532 604.056C186.773 606.956 211.007 623.667 205.281 644.323C200.031 663.339 175.083 667.024 155.387 667L-121.295 666.477C-138.379 509.768 -143.771 352.004 -137.428 194.494C-135.717 151.708 -132.676 107.376 -111.435 70.2709C-100.686 51.7757 -85.8994 35.9486 -68.1801 23.9711C-50.4608 11.9936 -30.2661 4.17517 -9.10367 1.09937C13.729 -2.06208 76.1684 0.314949 88.8558 25.5114C100.213 47.9981 48.9402 67.2996 39.7929 88.5027Z" fill="#FEFAD0"/>
</svg>
