<svg width="89" height="64" viewBox="0 0 89 64" fill="none" xmlns="http://www.w3.org/2000/svg">
<path opacity="0.4" d="M10.0269 32.1051C14.9833 34.2399 20.4898 34.5994 25.8796 34.7061C31.2693 34.8129 36.7147 34.7061 41.9489 36.0151C50.9282 38.2622 58.3628 44.3801 66.1641 49.4024C72.8318 53.6889 79.9052 57.2393 86.9731 60.7898C91.3016 62.9583 96.3135 65.1661 100.775 63.2954C105.104 61.4808 107.138 56.554 108.61 52.0597C111.127 44.3745 113.272 36.4027 112.972 28.313C112.672 20.2233 109.61 11.9089 103.326 6.89779C96.658 1.58331 87.6065 0.718157 79.1218 0.392322C57.6571 -0.484062 35.4923 -0.0571061 14.2332 3.3754C-1.21386 5.8922 -6.2147 25.0884 10.0269 32.1051Z" fill="#9F5AF8"/>
</svg>
