<svg width="58" height="40" viewBox="0 0 58 40" fill="none" xmlns="http://www.w3.org/2000/svg">
<path d="M56.805 6.25899C56.1364 3.81162 54.1774 1.88249 51.6932 1.22347C47.1545 0 28.9994 0 28.9994 0C28.9994 0 10.8449 0 6.30611 1.17683C3.86969 1.83542 1.86294 3.81206 1.19432 6.25899C0 10.7292 0 20 0 20C0 20 0 29.3174 1.19432 33.741C1.86338 36.1879 3.8219 38.1175 6.30655 38.7765C10.8927 40 28.9999 40 28.9999 40C28.9999 40 47.1545 40 51.6932 38.8232C54.1779 38.1646 56.1364 36.235 56.8054 33.7881C57.9998 29.3174 57.9998 20.0471 57.9998 20.0471C57.9998 20.0471 58.0476 10.7292 56.805 6.25899Z" fill="#FF0000"/>
<path d="M23.2197 28.5645L38.3167 19.9998L23.2197 11.4351V28.5645Z" fill="white"/>
</svg>
